27

11 8
8
10 2
2 3
10 0
0 5
9 7
3 4
9 4
1 0
2 1

14 2
10
3 0
3 1
11 1
0 0
3 0
13 1
11 1
8 1
5 1
7 0
13 7

15 15
26
9 13
4 12
4 12
1 13
3 3
2 11
8 4
3 10
8 13
3 1
6 8
13 10
10 12
14 10
12 4
8 12
9 11
5 1
2 3
9 8
0 4
11 1
9 4
3 0
11 8
8 1
5 16

13 5
24
10 1
3 4
11 0
12 4
11 4
4 3
2 2
2 4
12 2
2 4
6 3
4 1
12 3
5 0
1 4
8 4
1 4
1 3
5 3
5 4
4 3
0 1
4 4
5 2
4 16

13 9
11
2 2
1 7
0 7
1 4
10 8
9 8
3 2
11 4
0 8
5 4
6 3
16 6

14 3
15
5 1
10 1
6 2
3 2
13 1
1 1
6 1
13 0
11 1
6 2
12 2
6 0
13 2
9 0
7 2
6 4

11 10
26
10 6
2 5
6 5
2 2
0 9
2 7
8 4
2 5
4 8
1 3
1 9
1 4
7 3
10 2
9 1
0 2
2 2
4 2
10 1
3 4
2 0
3 3
4 1
7 3
9 7
9 3
8 20

6 11
21
3 10
4 7
5 5
0 3
4 4
2 7
2 0
4 3
5 5
5 3
2 9
0 0
4 5
1 2
5 4
4 2
2 10
5 2
1 8
2 1
5 9
19 8

1 5
14
0 1
0 3
0 4
0 0
0 4
0 3
0 0
0 3
0 3
0 3
0 4
0 0
0 4
0 2
7 11

13 11
18
7 10
1 0
2 9
1 1
6 10
7 3
10 3
5 10
6 4
11 5
6 10
4 7
8 3
2 7
10 9
0 1
3 9
0 3
10 15

4 4
3
2 1
0 0
1 2
4 14

14 6
15
11 4
1 5
1 1
5 0
10 2
3 4
10 1
12 4
8 5
5 1
2 5
7 3
4 5
13 2
5 4
11 7

12 7
23
7 3
3 3
3 3
3 6
3 5
3 0
1 4
10 1
1 0
4 1
10 0
4 0
10 4
1 5
8 6
1 0
2 5
4 5
0 3
6 1
1 5
10 5
3 2
16 4

12 6
4
7 0
0 4
9 3
6 5
4 18

4 15
8
0 4
0 6
3 8
1 4
0 2
2 9
0 7
0 5
18 3

5 10
14
3 3
4 4
4 0
1 3
0 5
4 2
1 4
0 2
0 6
0 1
3 8
3 2
0 2
0 2
10 4

12 5
26
10 4
6 2
1 3
1 0
3 3
4 4
7 3
11 2
2 4
0 3
6 4
1 1
6 0
3 0
9 4
4 0
8 4
4 3
9 3
6 1
4 0
0 2
6 4
3 4
8 4
4 3
11 10

13 9
26
1 3
12 8
9 2
12 4
10 2
12 2
10 1
10 3
12 4
8 4
6 2
7 1
4 6
2 1
9 7
8 2
5 6
0 4
11 6
7 8
11 8
12 4
7 2
7 6
3 3
9 5
2 6

11 3
22
8 2
8 2
9 1
9 0
9 1
6 2
4 0
8 0
3 0
1 2
4 0
7 0
5 2
3 2
9 1
10 0
2 1
2 0
8 1
7 2
1 2
5 0
10 18

1 7
12
0 0
0 3
0 3
0 4
0 3
0 1
0 4
0 3
0 2
0 2
0 2
0 1
20 15

3 6
10
2 4
1 4
2 4
0 4
0 3
0 5
0 2
1 3
1 0
1 0
10 12

10 8
17
0 1
9 2
2 4
6 2
1 6
8 4
5 3
4 1
0 4
8 0
7 3
9 0
5 6
2 7
3 2
6 4
6 6
13 7

11 12
4
6 3
6 11
7 7
5 3
19 16

2 6
16
1 4
1 2
1 2
0 3
1 2
0 3
1 5
0 0
0 4
1 1
0 4
0 0
0 2
1 4
1 5
1 4
16 6

6 10
6
5 6
4 5
0 3
4 1
5 6
4 7
12 15

5 6
28
4 2
4 2
3 3
2 4
0 5
1 4
0 5
3 2
1 0
4 5
3 4
2 3
0 0
0 5
2 1
0 1
0 4
1 5
0 4
0 4
1 1
0 1
1 2
4 4
2 4
3 4
2 0
3 5
13 19

4 7
13
3 2
3 5
3 5
1 0
2 3
2 4
2 2
1 1
2 1
3 4
0 4
2 6
2 6
3 20
