27

15 6
2
3 1
11 5
12 10

3 7
29
1 6
2 4
2 1
0 0
0 2
1 5
0 5
0 6
2 6
0 1
2 4
1 1
1 1
1 0
1 5
1 6
0 3
2 3
2 4
0 2
2 1
1 1
1 5
0 2
1 0
2 2
0 0
0 3
0 3
19 5

12 3
1
3 2
17 12

12 5
7
8 2
7 1
10 2
3 1
5 1
9 1
10 1
9 9

9 14
14
5 12
0 10
0 5
0 2
2 11
6 10
1 13
3 3
5 0
4 12
1 9
2 5
2 6
3 8
16 7

6 15
5
4 8
0 1
4 8
4 3
1 3
17 15

12 2
22
5 0
0 1
0 1
5 1
6 1
7 0
1 0
4 1
9 1
4 0
11 1
10 0
4 0
3 1
8 1
1 1
4 0
1 0
7 1
0 1
1 1
0 1
14 10

12 2
29
4 1
7 0
7 1
0 0
7 1
4 0
3 0
4 0
3 0
5 0
3 0
1 1
10 0
0 1
2 0
9 0
6 0
0 0
8 0
4 0
11 1
4 1
2 0
1 0
5 1
10 0
6 0
11 0
1 0
5 6

13 6
27
5 1
10 1
11 4
3 2
12 3
5 1
6 5
3 3
4 4
1 3
1 0
1 5
11 2
12 2
8 2
9 2
11 2
12 3
5 0
10 4
2 4
4 4
3 1
12 0
11 3
0 2
2 4
9 17

3 12
29
2 4
1 3
2 4
1 11
2 11
0 11
2 7
2 5
0 1
1 5
0 2
1 6
1 3
2 1
2 2
2 10
2 2
0 3
0 2
1 3
1 1
1 5
1 11
0 1
0 1
2 1
2 0
2 7
0 9
6 6

5 14
14
1 9
1 11
3 5
3 11
1 5
4 6
3 4
0 4
0 4
4 6
0 12
4 6
3 13
0 2
9 3

3 8
23
1 5
1 7
2 0
1 2
2 0
2 3
1 6
2 0
1 0
0 4
1 4
1 1
0 6
0 7
1 6
2 6
1 6
2 0
2 1
1 5
0 2
2 5
1 7
20 9

2 13
4
0 3
1 4
0 5
1 8
7 20

12 2
10
6 0
0 1
8 0
1 1
6 1
10 0
5 0
1 1
2 1
7 1
10 6

11 3
24
4 1
4 0
3 2
0 0
5 2
8 0
9 2
10 1
7 2
10 2
3 1
7 1
2 1
2 2
6 1
8 1
10 0
3 0
4 1
3 1
3 2
8 0
10 0
6 2
1 17

2 15
27
0 4
1 6
1 13
1 11
0 1
1 9
0 2
1 13
1 2
0 14
0 6
1 11
1 0
0 7
0 7
0 14
0 8
1 0
0 3
1 4
1 4
0 11
0 9
1 7
1 0
0 6
0 7
8 10

3 8
19
2 7
0 5
2 7
1 6
1 7
1 0
2 0
1 1
0 1
0 5
1 1
0 1
1 6
2 1
1 3
1 7
0 4
0 0
1 4
15 2

9 2
28
8 0
2 0
5 1
1 1
2 0
8 0
6 0
3 0
5 0
8 1
5 0
1 1
6 0
8 0
3 0
6 1
2 1
2 0
2 1
0 1
2 1
6 0
1 1
5 1
8 0
0 1
3 1
1 0
11 2

9 6
2
6 3
1 5
13 6

8 15
16
4 13
0 5
6 0
6 8
2 9
5 9
0 9
0 7
4 3
4 2
4 12
4 8
7 2
6 12
3 14
3 6
18 14

11 2
3
8 0
2 0
0 1
3 13

6 10
21
5 3
2 5
1 2
5 0
3 1
2 5
4 0
2 0
1 2
3 0
3 4
0 2
5 6
1 9
5 3
0 6
3 1
0 9
2 1
2 4
0 1
15 15

5 10
9
1 9
1 0
4 0
3 2
0 0
4 1
4 7
0 4
3 2
20 18

9 3
7
1 0
4 1
8 2
1 1
6 0
0 1
3 2
18 8

10 9
17
4 7
7 8
2 1
7 3
0 5
1 3
2 0
0 7
9 3
4 1
8 7
4 8
7 2
6 1
6 1
5 6
9 4
12 5

11 14
17
1 13
1 8
6 13
5 0
10 7
8 11
9 2
7 3
10 1
8 1
7 2
7 4
5 3
7 12
0 11
6 1
8 11
19 2

15 10
12
5 8
5 6
2 5
13 3
2 0
7 1
9 9
9 1
9 8
9 2
0 4
13 2
10 15
