*** Life<FredkinCell> 11x8 ***

Generation = 0, Population = 8.
-----0--
0-------
---0----
----0---
--------
--------
--------
--------
--------
----0--0
0-0-----

Generation = 1, Population = 20.
0---0-0-
-0-0-0--
0-0-----
-----0--
----0---
--------
--------
--------
----0--0
0-00-00-
---00--0

Generation = 2, Population = 21.
-----0-0
0-0-0---
-0------
0-0---0-
---0----
----0---
--------
----0--0
0-0-----
--1--110
0---1---

*** Life<FredkinCell> 14x2 ***

Generation = 0, Population = 8.
0-
--
--
00
--
-0
--
0-
-0
--
--
-0
--
-0

Generation = 7, Population = 10.
-0
-2
2-
--
23
02
--
-3
-1
--
--
--
0-
--

*** Life<FredkinCell> 15x15 ***

Generation = 0, Population = 25.
----0----------
-------------0-
---0-------0---
00-0------0----
------------0--
-0-------------
--------0------
---------------
-0--0-------00-
----0---0--0-0-
------------0--
-0------0------
----0----------
----------0----
----------0----

*** Life<FredkinCell> 13x5 ***

Generation = 0, Population = 21.
-0---
---00
--0-0
----0
-0-00
0-000
---0-
-----
----0
-----
-0---
0---0
--000

*** Life<FredkinCell> 13x9 ***

Generation = 0, Population = 11.
-------00
----0--0-
--0------
--0------
---------
----0----
---0-----
---------
---------
--------0
--------0
----0----
---------

Generation = 6, Population = 49.
-1--3-5--
-10--1--3
21-3----2
4-11---2-
0-21-0--2
--1-01---
1---0010-
--2----1-
--101-101
0-0-1----
-01-102--
0-----2-3
---01----

Generation = 12, Population = 34.
3-----5--
--201---5
--14-----
4--------
--5---01-
2-5------
2-----40-
2-5---1--
--2----4-
---02-6-7
--2-2---2
--2-1-5-4
0--------

*** Life<FredkinCell> 14x3 ***

Generation = 0, Population = 14.
---
-0-
---
--0
---
-0-
000
--0
---
0--
-0-
-0-
--0
000

Generation = 4, Population = 20.
---
---
100
--2
---
12-
-2-
-22
--3
0-1
123
02-
--4
41-

*** Life<FredkinCell> 11x10 ***

Generation = 0, Population = 23.
--0------0
---00----0
0-0--0-0--
---00-----
-00-----0-
----------
-----0----
---0------
----0-----
-0-0---0--
-00---0---

*** Life<FredkinCell> 6x11 ***

Generation = 0, Population = 20.
0--0-------
--0-----0--
00-----0-00
----------0
--0000-0---
--0000---0-

Generation = 8, Population = 30.
--1-02121--
2-02-20--0-
3--0-1105-1
----2---1-4
--2-4-----1
---331--01-

Generation = 16, Population = 26.
-3----28352
3---4-2----
64---53-7+-
--36-7--37-
4-566-----3
----------3

*** Life<FredkinCell> 1x5 ***

Generation = 0, Population = 5.
00000

*** Life<FredkinCell> 13x11 ***

Generation = 0, Population = 17.
-0-0-------
00---------
-------0-0-
---------0-
-------0---
----------0
----0-----0
---0------0
---0-------
-----------
---0-----0-
-----0-----
-----------

*** Life<FredkinCell> 4x4 ***

Generation = 0, Population = 3.
0---
--0-
-0--
----

*** Life<FredkinCell> 14x6 ***

Generation = 0, Population = 15.
------
-0---0
-----0
----0-
-----0
00--0-
------
---0--
-----0
------
-00---
----0-
----0-
--0---

Generation = 7, Population = 36.
01-2-2
01---4
0-0---
1223--
0--30-
31----
1-0---
01-2--
---21-
2-3--2
-3--21
-0----
-2---0
-0--0-

*** Life<FredkinCell> 12x7 ***

Generation = 0, Population = 20.
---0---
0---00-
-----0-
0-00-00
00---0-
-------
-0-----
---0---
------0
-------
00--00-
-------

Generation = 4, Population = 36.
10-----
-10---1
---1-2-
41-2-12
--200-1
1---13-
1---02-
1-11-01
000-11-
-------
--0--10
---0---

Generation = 8, Population = 30.
-0----1
-------
----2--
6-33-13
-----5-
5---24-
21-104-
-------
---0--1
3--000-
-2---3-
1-12-30

Generation = 12, Population = 37.
-02----
0---11-
---327-
62---15
---4-7-
-230--1
451--50
-------
--1-23-
30-1-1-
2--32--
-2-40-1

Generation = 16, Population = 29.
44--142
---0---
-0-----
-------
----2--
7-42-82
-----72
4--311-
-2-4---
-------
65-4-4-
--460-3

*** Life<FredkinCell> 12x6 ***

Generation = 0, Population = 4.
----0-
------
------
------
------
------
-----0
0-----
------
---0--
------
------

*** Life<FredkinCell> 4x15 ***

Generation = 0, Population = 8.
--0-0000-------
----0----------
---------0-----
--------0------

Generation = 3, Population = 25.
-0-1100120-----
002---2-10-0---
-01---10----0--
--00101--------

Generation = 6, Population = 24.
0---11113--21--
1-----2-----0--
11-0-0-3-010---
0---2-----0-0-0

Generation = 9, Population = 28.
34--22-2423---1
10302--0--00300
-4-----40------
--003-1--0-----

Generation = 12, Population = 26.
-403-3-25--411-
--4---3-4------
3--1405-31-1002
2---------3-1--

Generation = 15, Population = 22.
-5-4--3-----1-2
1---20-0-0-0---
-----05-3-----3
3-2-40---0-0-0-

Generation = 18, Population = 18.
--2-333----6---
--6-5-----0----
5-22-16-4--3---
--3---3-0------

*** Life<FredkinCell> 5x10 ***

Generation = 0, Population = 12.
-00--00---
---00-----
----------
--00----0-
0-0-0-----

Generation = 4, Population = 24.
----124--1
1--22--12-
02--302---
3-121-21--
-1--00--0-

Generation = 8, Population = 22.
-55--282-1
--3-6---42
26--513---
7-3-----12
-2--12----

*** Life<FredkinCell> 12x5 ***

Generation = 0, Population = 22.
--00-
00-0-
----0
0--00
0--00
-----
000-0
---0-
----0
---00
----0
--0--

Generation = 10, Population = 33.
3-544
3-421
--5--
---25
4-2-1
-3-5-
51430
2-2-3
1222-
01---
1---2
--1--

*** Life<FredkinCell> 13x9 ***

Generation = 0, Population = 24.
----0----
---0-----
-0-------
---0-----
------0--
------0--
--0------
-00---0-0
--0-0----
--0--0-0-
-000-----
------0-0
--0-0---0

*** Life<FredkinCell> 11x3 ***

Generation = 0, Population = 17.
---
--0
00-
0-0
0--
0-0
--0
0-0
000
00-
0--

*** Life<FredkinCell> 1x7 ***

Generation = 0, Population = 5.
00000--

Generation = 15, Population = 0.
-------

*** Life<FredkinCell> 3x6 ***

Generation = 0, Population = 8.
--0000
0--00-
----0-

*** Life<FredkinCell> 10x8 ***

Generation = 0, Population = 17.
-0--0---
------0-
----0--0
--0-----
-0------
---0--0-
--0-0-0-
---0----
0---0---
0-0-----

Generation = 7, Population = 36.
23423-2-
-----23-
126--411
0--4--32
------3-
---2--3-
0---3--2
2-0--2--
4--2-0-2
403--01-

*** Life<FredkinCell> 11x12 ***

Generation = 0, Population = 4.
------------
------------
------------
------------
------------
---0--------
---0-------0
-------0----
------------
------------
------------

Generation = 16, Population = 13.
---3-------3
---3--------
------------
------------
------------
-----3-----3
-3-2-1-----2
-3----------
---3-------2
---7--------
------------

*** Life<FredkinCell> 2x6 ***

Generation = 0, Population = 8.
0-000-
-00-00

Generation = 6, Population = 7.
-2--02
0-0-02

Generation = 12, Population = 5.
--0--3
---304

*** Life<FredkinCell> 6x10 ***

Generation = 0, Population = 5.
---0------
----------
----------
----------
-0---0-0--
------0---

*** Life<FredkinCell> 5x6 ***

Generation = 0, Population = 20.
00--00
000-00
00-00-
--0000
--0-00

*** Life<FredkinCell> 4x7 ***

Generation = 0, Population = 11.
----0--
00-----
-0000-0
--0-00-

