*** Life<FredkinCell> 23x7 ***

Generation = 0, Population = 14.
------0
--0----
-------
-------
-------
--0----
---0---
0--00--
---0---
-------
-------
-------
----0--
-------
--0----
-------
-------
-------
-----0-
--0--0-
-------
------0
-------

Generation = 2, Population = 38.
----0--
0---0--
------0
-------
---0---
---0---
-0-2-0-
011--10
-0-2-0-
0--10--
---00--
-------
------0
-------
0------
-------
--0--0-
--0--1-
---0---
0--11-1
-----1-
--0-010
-------

*** Life<FredkinCell> 9x18 ***

Generation = 0, Population = 12.
--------0---------
----------0-------
------------------
--------0---------
------------------
--0-----------0---
0--------------0--
--0---------------
---00------0----0-

Generation = 3, Population = 56.
-----0-----00-----
------0---00-0----
--0---00-0--0-0---
00-0-0-00----0----
10--0-0-0---0-----
--1010-0-0------1-
--1-10--0-0-0--0-1
-0----0--0---01--0
--1-3-100----11-10

Generation = 6, Population = 60.
0-1-0-1-0-2-1-00--
1-0-1-------------
0-00--1-1-1010--10
----2-0-------0---
20-2-1--111--00101
--2---0-----0-----
01-2-0-----00-01-4
1-2-----2-0-------
--22--2-3---0----1

*** Life<FredkinCell> 5x6 ***

Generation = 0, Population = 12.
-00-0-
-----0
-0000-
0----0
-0--0-

Generation = 1, Population = 14.
011---
---00-
-1--10
-0000-
--00--

Generation = 2, Population = 13.
1-2-0-
0--1--
02-021
0-11--
------

Generation = 3, Population = 18.
2--0-0
---200
1301-2
102--0
0-00--

Generation = 4, Population = 22.
-12101
-0-3-1
-41-2-
213101
10-100

Generation = 5, Population = 12.
2--2--
0--4-2
-5--32
--42--
--0-1-

Generation = 6, Population = 20.
312301
1-0503
---14-
---301
-011-0

Generation = 7, Population = 16.
--341-
20----
1--252
-1-41-
11--11

Generation = 8, Population = 18.
3-4-21
-1---3
251-63
22--21
2-1--2

Generation = 9, Population = 16.
-1--3-
220-0-
--2--4
3-44-2
31-1-3

Generation = 10, Population = 14.
-2-441
33--1-
-----5
42----
-212-4

Generation = 11, Population = 11.
-3-552
4-0-23
------
5--4--
---3--

Generation = 12, Population = 17.
--466-
-3-5--
--2265
-2452-
3-141-

Generation = 13, Population = 15.
--5772
4---23
-5--76
-3--3-
-2-5-4

*** Life<FredkinCell> 19x10 ***

Generation = 0, Population = 15.
----0-----
----------
0-0-------
----------
----0---0-
----------
----------
------0---
-------0--
--------00
-------0--
-------0--
----------
0---------
----------
----------
---------0
----------
0------0--

Generation = 1, Population = 40.
---0-0----
0-0-0-----
---0------
0-0-0---0-
---0-0-0-0
----0---0-
------0---
-----0----
---------0
-------011
------01-0
------010-
0------0--
-0--------
0---------
---------0
--------0-
0------0-0
-0----0-0-

Generation = 2, Population = 34.
0---0-0---
----------
--0-0---0-
----------
0---------
------0---
----0--00-
----0----0
-----0-0-1
---------2
-----0-2-1
0----0--1-
-------1--
0-0----0--
---------0
0---------
0--------0
----------
--0--0-0--

Generation = 3, Population = 66.
-0-0---0--
0-0---0-0-
-0---0-0-0
0-0-0---0-
-0----0---
0---00--0-
---010-11-
---01----1
----------
--------1-
0---01--02
-0--0101--
--0--002--
---0--0100
--0----00-
10--------
10------0-
0-0--0-0-0
-0-00---0-

Generation = 4, Population = 43.
--0-0-----
----------
0-0---0---
------0---
0------0--
--------10
0-0----2--
--0----0--
---00---01
0---00-02-
---0-----3
---0--1--0
-------3-0
--0-0---11
0---------
-------0--
2----0----
1---------
--011-----

Generation = 5, Population = 84.
-0---0----
0---0-0---
---0-010--
--0--01---
-0-------0
--0----021
--10--03-0
001-1-01-1
0--1---0-2
-0-0-1-1-2
0-01-102-4
--0101--1-
--000---0-
00---0--2-
-00-0--000
-----00-0-
30--0-00--
200000----
001-20----

Generation = 6, Population = 69.
--0-------
------1---
0---0--10-
----0----0
0-0--000-1
--1------2
0-21-0-41-
-------2--
10-2-0----
0-0--20---
-0-202--05
001-1---2-
0--1-0-3-0
1-000-0---
--1--0-1-1
1-0-01--1-
----1--1--
3-1----0--
-1-1--0---

Generation = 7, Population = 82.
-0-0--0---
0-0-00--0-
-0-010-21-
--001-1--1
--10-1-1--
-0----0--3
---2----2-
-01---03--
-10--1-0--
1--0-31122
01-31--2-6
-12-21--30
--02--0-0-
2--11--1--
-0--010-0-
--1---00--
---02-02--
-0--0--10-
--1-20----

Generation = 8, Population = 43.
--0----00-
--------10
------13--
-------0--
----0---0-
0---------
----1-----
0-----1---
----02---2
20-10-----
--0--2-3--
-----2----
0---0--31-
------0-2-
---------1
------1---
-0-1---3--
3-------10
-----1000-

Generation = 9, Population = 66.
-0-0--01--
--0---10-1
-----02--0
----1--1--
0--0-1---1
-0------2-
---2-00---
-0-----3-1
-1---3--0-
3102-3-1-2
0----3--0-
0-2--31-3-
-0-2---4-0
2---10-13-
----------
-0-0-1---0
----2----0
---0-001-1
0---22----

Generation = 10, Population = 82.
0-0-00--00
------2--2
--0--1-311
0----0--0-
--1-0-01--
--1---00--
--2--11-20
0110----0-
---20400-2
-2-3------
---31---1-
11--2-214-
0-0----5--
----21--4-
00-00--101
1---0-1-11
-0-1-0030-
3-1----2-2
-1--3--0-0

Generation = 11, Population = 99.
----11-11-
0---00--1-
00-012242-
-0---1-11-
002--1----
-0-00-1--3
0---12-4-1
1-2-----11
1--3---10-
3---031122
0-0--30-26
-2--3-32-0
10-2-0-61-
-00--2015-
-1-11--2--
20-0112-2-
3-0-2114-0
----00--13
---1-201-1

Generation = 12, Population = 93.
0--0---2-0
1---11-0-2
---12--531
0--0--1--1
1-3--2-101
0111----24
1-2--31-2-
----10-3--
-1---4--12
-20-1422--
11-31-1--7
13-------1
210-01-7--
-111-----1
--1--1030-
--1--2----
40-13-25-1
3-1--10224
--1-3--202

Generation = 13, Population = 105.
100--103-1
20-0-2--1-
--0------2
10-1---11-
-0400-0212
1--20-1-3-
203---243-
1120211-11
12--0--123
-313-533--
-204-32-28
24-1-33242
---212--1-
---2--0---
----1---1-
2-2--32-21
-1-24---02
402-021-35
012-----1-

Generation = 14, Population = 88.
-11-1--41-
-----3---2
-0-1-2-53-
2--2-----1
1------3-3
211-------
31-2--3-4-
2-3-3---2-
-303140-3-
-42-1-4-2-
-315-43---
3-2-344---
2103--0-2-
--132--1--
0-1----32-
-0--143-3-
42-3-1-513
---0--2-4-
-2-132022-

*** Life<FredkinCell> 17x17 ***

Generation = 0, Population = 12.
---------0-0-----
-----------------
------0----------
--------0--------
-----------------
-----------------
-----00----------
-----------------
0----------------
---------------0-
----------------0
-----0-----------
-----------------
--------------0--
-----------------
-----------------
0----------------

Generation = 4, Population = 44.
-----122-----0-0-
-----------------
--0--11--210-----
----1-------0----
0--------0-0-----
---------------0-
-11---2--10-----0
-----1--1--------
--0-1------------
-----------0--00-
-----10-----0-2--
-0-------0-------
-----------------
----------0----12
0---------------1
-----0-----------
--0-0------------

*** Life<FredkinCell> 22x8 ***

Generation = 0, Population = 12.
--------
--------
----0---
--------
--0-----
0---0---
--------
------0-
--------
--------
0---0---
--------
--------
--0-----
--------
-0------
--------
--------
--0-----
---0----
-----0--
--------

Generation = 3, Population = 78.
---0-0--
----0-0-
0---00-0
10-0-00-
-0--0---
100-----
-0-0----
100-0---
10-0-00-
----0010
-00--010
-0-00-0-
1-0010--
-20010--
00000---
-0-10---
--10----
--0--0--
-0--1-0-
---0-200
--1-000-
---10--0

*** Life<FredkinCell> 13x9 ***

Generation = 0, Population = 11.
---------
---------
--0----0-
---------
--0------
-----0---
------0--
---------
0-----0-0
---------
-------0-
---0-----
----0----

Generation = 5, Population = 47.
-----00-0
0--00-0--
-00-100-0
0--0---00
-0-----0-
0-0------
-0-0---0-
------0--
-0-0-0---
--000-000
--0-314-1
--01--0-0
---0-03-0

Generation = 10, Population = 39.
---10-010
-------2-
-3--3--25
-----1---
--10-135-
-------2-
0-0-0-0--
---------
0--3-0505
-------0-
-1--4--44
-1-------
0-02--331

*** Life<FredkinCell> 24x19 ***

Generation = 0, Population = 15.
-------------------
-------------------
-------------------
-------------------
--------------0----
-----------------0-
-------------------
---------0---------
0------------------
----------0--------
---------0---------
-------------------
---------------0---
-------------------
0-0----------------
------0------0-----
--------0----------
------0------------
-----------------0-
0------------------
-------------------
-------------------
-------------------
-------------------

Generation = 4, Population = 59.
--------------0----
-----------------0-
-------------------
---------0---------
0---------0-------0
----------1--0---0-
---------1---------
-----0-------0-----
--0-0---------00---
------0-------0--0-
0-0--0-------0-----
------0--0---1-----
0-------1--0-------
------0---0--------
0-0-2-0--1-------0-
1-0------10------1-
----0-------0--1---
--1-------1--------
0-1----------1---0-
--0-0-0------0-----
--------0----------
------0------------
-----------------0-
0------------------

Generation = 8, Population = 48.
0------------------
----------0------0-
---------0----0----
-------------------
------0--------10--
---------0---2-----
0-0----------------
-0----1------2---1-
------3------------
--0---0-----------0
-1-----------------
0------------------
-------1------11---
-----------------3-
----2-4-1-1--------
3----0---1----0--3-
----------------1--
1---------1---0----
-------------2-----
------1-3----------
---------------1---
2------------------
1-0--------------0-
-------------0-----

*** Life<FredkinCell> 8x18 ***

Generation = 0, Population = 13.
--------0---------
--0---------0-----
-00--00-----------
----0--0----------
-----------------0
0-----------------
--------------0---
-------0----------

Generation = 4, Population = 42.
-23-101-----0----0
--2---1-0---0---0-
1-0--21-111---1---
2--0---01--1------
--------0----1-2--
----0--0----1-----
-01--10---0---0---
0--01--0---0------

Generation = 8, Population = 42.
1-------------1-1-
1------1--1-----1-
23--36---13--1---2
4-1-3--4----0--1--
-10--02--3-3-----0
--2-2-012---1-----
-13--3--0-----1---
--0---------1--1--

*** Life<FredkinCell> 14x5 ***

Generation = 0, Population = 11.
0----
-----
-----
--0--
-----
-0-0-
-0---
-----
0----
----0
0--0-
--0--
----0
-----

Generation = 4, Population = 29.
--2-0
-1-1-
20---
0---2
-----
-2-01
12-1-
-----
--0--
0000-
-3202
3---0
--1-2
--2-1

Generation = 8, Population = 27.
023-2
-3-12
2--1-
4---3
----1
-6-2-
52---
-----
0-2--
2----
1-6-4
4-1--
--2--
-1-1-

*** Life<FredkinCell> 10x6 ***

Generation = 0, Population = 12.
------
-0----
-00---
----0-
----0-
------
------
---00-
---00-
00-0--

Generation = 4, Population = 25.
-32-1-
-----1
10---0
0--0--
1--1--
0--2--
-00---
-1-0-3
0--201
-102--

Generation = 8, Population = 29.
---01-
11---3
--23-2
-3321-
24-21-
-0-30-
------
0242--
03440-
-----1

*** Life<FredkinCell> 7x23 ***

Generation = 0, Population = 11.
------------0----------
------------0------0---
------0----0---------0-
-----------------------
----------------0-----0
---------0-----0-------
--------------0--------

Generation = 2, Population = 35.
------0---012-0------0-
----------0---0--0---1-
----0---00--00--0--1--1
---------0--0--0---0---
------0----0------0-010
-------0---0-0---0-----
------------0-0-------0

Generation = 4, Population = 33.
------0-0--1---------21
--------10--1---0--1---
--0----1--0-0-00-0---0-
-----------------------
--------------0---0----
-----0---0-210-0-------
------0---00----0-0--10

Generation = 6, Population = 66.
--0-0--0-0-13010-0-11--
------10---0-----01--2-
0---001--000-1-2101--02
-----0--0--0-0-10--1---
--0---00---2--00010-1-1
---0-----01---10-0-----
----0-0--02001----01-3-

Generation = 8, Population = 21.
----0---------------3--
----0------0-------10--
0--1---------31--2-2---
-----------------------
--------0-----0-2-----1
-0-----1---------2-----
------0---------------2

Generation = 10, Population = 62.
0-012-0------01--1025-2
--0---1--1---1---22--40
011-11--1--22-3--2-4003
-0--0--0---0-----1-20--
0--0------0-01--22101--
---0-0---0-----0---0---
----0-0-------0-0---0-2

*** Life<FredkinCell> 19x24 ***

Generation = 0, Population = 15.
---------------------0--
------------------------
------------------------
---------0-0------------
--------0---------------
------------------------
---00-------------------
------------------------
0---------------------0-
------0------0----------
---------------------0--
------------------------
0-----------------------
------------------------
------------------------
-------------0----------
---0-----0--------------
------------------------
------------------------

Generation = 2, Population = 57.
-------------------0-0-0
---------0-0------------
--------0------------0--
-------0-0-0-0----------
---00-0---0-------------
---------0-0------------
001--10-0-------------0-
------0------0----------
0-000---------------01--
----0---0--0---0--------
-------------------0--10
------0------0----------
0-0------------------0--
-------------0----------
0--0-----0--------------
-----------0---0--------
-0---0-0---0------------
-------------0----------
---0-----0--------------

Generation = 4, Population = 55.
--------0--------0-----0
------------------------
---00----------------0--
-----0-0-----0-0--------
0---2-------0--------00-
------0------0----------
2------00------------1--
---------0-0------------
0-2-0---1---------0---1-
--1------11------0------
---01------------0-----2
-------------0----------
0-010----0------------1-
------0------0----------
---------------------0--
---------1-------0------
1----0-0-----1----------
------------------------
---0-----0--------------

Generation = 6, Population = 151.
---00-0-0-0----0-0-0----
-----0-0-----0-0--------
001-200-0---0----0-0-01-
---1-000-0-0---0-0------
---22-110-0---0----01--1
----11-010---0----------
2----20-200-0-----00-1-0
--1---11--00-----0------
0--0---11-1-----00---3-1
1---1--003--00-0---0----
-002-10-01-----0--10-0-2
--1---0--100-0-0-1------
-0-1-110---0-----0--01-1
----1---01-0-0-0-0------
--0000-0-1---1-----0--10
------01---1-1-0---0----
1-0--0-0---1---0-----0--
---------1-------0------
00-0-----0-0-0----------

Generation = 8, Population = 54.
0--22--------1-----0--0-
------0------0----------
--------0------------2--
-1-3-----0-0-----2-0----
----------------0-------
------------------------
--31-------10--------1--
-------------0----------
---0--0-11----0---1--3--
3----0--------0------0--
-------------0-----0----
---------1-0------------
------3-----------------
------------------------
----2----3--------------
-----1-------3-------1--
10-1-------3-----1----1-
------0------1----------
2--------------------0--

Generation = 10, Population = 166.
-1-4411-0--0-3-1-0-01-0-
-0-11---10-----1-0-1----
1--23-1---0--1--0-----30
-1-3-000-0-0---0-2-0-1--
--03----0--10-0---0-----
-0-1-----0-1-0---0-0----
21-3220-2-1--0--0-11-1-0
0----0-----2--00-----0--
-04010023-3--0------25-1
3-21---0-4-011--0--2---0
---3----03-1--00-13-----
0----0-0-1-0-10------0--
--------01---0-----0----
-----0---2-1-1-------0--
0011---1---------0----2-
---1--22---3-3-1---1---0
-20111-------1-1---000--
----01--0--1-1-0-----1--
2200-------0-----0-0-010

Generation = 12, Population = 148.
1-0-6--0-0-----3020--001
--0---0--20--1---2------
1-3--------0-1---2-0-252
-1-----------1-------1-1
0---3-2-01--210---02221-
0----21------20------1--
2-----2------2-001-1-3-0
-1-0-----0---------1----
--6-1204----021-201---13
-12-1----63------10----2
--153------10--2-3---1-3
-------0-----1-1-----0--
101---3-2310--0--01--21-
1----01------31------0--
-----2--1----------2-0--
-0-------1-3-----------0
340-310------1-1--1---2-
--0---1--31--3---1------
4202-----1-2----------12

*** Life<FredkinCell> 15x19 ***

Generation = 0, Population = 10.
-------------------
-------------------
----------0--------
-----------------0-
--0--0-------------
---------------0---
-------------------
------------0------
-------------------
----0--------------
--0----------------
-----0-------------
-------------------
------0------------
-------------------

Generation = 5, Population = 109.
-0-00-0--0-0---0---
--0--00---0-----0--
-----0-0----0----0-
00-------0-021--0-0
120-20-00-0000---0-
0000-00--0--1------
-0-000--00------00-
----0100-00----1210
00-002---------000-
202---3--0----0-0--
1----01000--0--0---
--0---2-0-00-0-----
-00-0-0--00-0------
-02----0-0-0-------
-0100-0---0--------

Generation = 10, Population = 68.
--1--0------------0
--1--00--0---------
11-1---0-----1--0-0
---00-10-----------
---4-02----2---1--0
--------2---------0
-2--2--------0-----
------01----0--12-1
----3--------------
32--24--0-0--20--00
--1--12------------
1-2-1-32---11-21---
---00--0-----------
22---22-----0---1--
-----0-------------

*** Life<FredkinCell> 8x13 ***

Generation = 0, Population = 14.
0-------0----
------0---0--
-----0-------
--0---0------
----00-00--0-
-------------
----------0--
----------0--

Generation = 2, Population = 32.
--0--01-0-1--
--0-0-0-----0
0--010-----0-
0-----0-1-0--
--11---2-----
--0---0---1--
----00-0---10
--------0-2-0

Generation = 4, Population = 29.
--2-0--00--11
--2---------0
21------100--
2-1---0------
-1-32--2-0--0
------0------
-----21---2-0
--0---------2

Generation = 6, Population = 43.
-1---2-2-123-
--4-2-1---1-2
23----11-02-1
------0-2---1
0-25-2-21-11-
0---1-2-0---0
-0-------12-2
0-0-0-1---3--

Generation = 8, Population = 38.
1-----2-1----
1-4-----0-1-4
-5--32-33-20-
3-2-0-2---0-3
21474---3-3-1
--2-------1--
1-0--3-------
--0---1-0-5--

*** Life<FredkinCell> 21x12 ***

Generation = 0, Population = 10.
------------
----------0-
------------
------------
--------0---
------------
----0------0
----------0-
------------
------------
------------
-0--0-------
------------
------------
------------
0-----------
------------
------------
-----0------
------------
-0----------

Generation = 3, Population = 85.
--------0---
-------010--
-------0100-
----0-0-001-
---0---0-011
--0-0---0-10
-0-0-0---10-
--0-0-001---
-0-010--0---
0-0010---0--
-0000-0---0-
-02200-0----
00000-0-----
1100-0------
-00-0-------
---0-0------
--0-0-0-----
---0-0-0----
----0-0-0---
-----0-0----
0-----0-----

Generation = 6, Population = 91.
----0-1-1-00
----1---2-0-
--0-0-1-10-0
------0-0-2-
0-0-0-0000-1
-0--1-0-1---
0-0-10020410
--111-1---0-
0---2-111110
----200-1---
--0---0-10-0
------110-0-
----01-----0
--0--1--0-0-
-1-0---0----
1--10-------
---0-0---0--
010---------
-------0---0
0-0---------
-0-0-----0--

*** Life<FredkinCell> 20x14 ***

Generation = 0, Population = 14.
-----0--------
--0-----------
--------0-----
0-------------
0------------0
------0-------
--------------
---------0----
---------0----
--0-----------
--------------
--------------
-0------------
--------------
--------------
--------------
--------------
-----------0--
---0----------
-------------0

Generation = 5, Population = 106.
-1-----1320-0-
20-000--00--00
2--0-30--0-0-0
-02--0--0-000-
-0---10--0--0-
-02000--00----
1-0--0-0-20--0
2---021-0---0-
210-010------0
1----0--------
0--------1----
-0---0--020---
0---0-0-0100--
-----0---00-0-
----0------0-0
-0-0--------0-
0-0----0-----0
-0-0--010-----
--0-0-0100----
---0---00-0---

*** Life<FredkinCell> 15x22 ***

Generation = 0, Population = 10.
----------0---0-------
------------0-0-------
----------------------
----0-----------------
----------------------
----------------------
----------------0--0--
---------------------0
----------------------
----------------------
----0-----------------
-----0----------------
----------------------
----------------------
----------------------

*** Life<FredkinCell> 22x23 ***

Generation = 0, Population = 12.
---------------------0-
-----------------------
-----0-0---------------
-------------0---------
-----------------------
----0------------------
-----------------------
-----------------------
-----0--------------0--
-----------------------
-----------------------
-0---------------------
-----------------------
-----------------------
-----------------------
-----------------------
-----------------------
-----------------------
--------------0--------
-----------------------
-----------------------
-----0--------00-------

Generation = 5, Population = 138.
--------0-------0-0-0-0
-0-----0-0-0-----0-----
0-------01--0----0--0-0
-0-0-0--0200----0-0-0--
0---0-0-00-------0-0110
-0-------0----------00-
00--0--------0---------
010--0-0-0--0-0-0-----0
020-0---0-0--0-0-0---0-
-0-0-0---0------0-----0
-0--00-----------------
0-0-020-------------0--
-0--010------------0-0-
-----0--------0-----0--
-0-----------0-0-------
0-0-----------0--------
-0---0--------00-------
----0-0---0--0210-0----
---------0-0-----0-0---
----0-0---0--0230-0----
-0---0---000--10--00---
0-0-----01-21----1210--

*** Life<FredkinCell> 5x13 ***

Generation = 0, Population = 12.
--0-0--0-----
-------0--0--
-0---0-----0-
------0--0---
--0---0------

Generation = 4, Population = 29.
-310-0--1----
---0--32--000
----312--1-1-
--1--01--13--
21--0340--02-

Generation = 8, Population = 29.
-5--122---1-1
--0----41-22-
-0-0534--3---
30----3-----1
332--5-1--031

Generation = 12, Population = 31.
---233-6--23-
0-011---5-24-
----6-4-0413-
3---424-3---3
5-4-47-24----

*** Life<FredkinCell> 24x5 ***

Generation = 0, Population = 10.
-----
-----
-0---
-----
0----
0---0
-----
-----
-----
-----
----0
-----
-----
-----
-----
-----
---0-
-----
-0---
-----
--0--
---00
-----
-----

Generation = 3, Population = 42.
0-0--
00-0-
200--
--0--
3-10-
--00-
-0---
10-01
0--01
--0--
-0---
--0--
---0-
---00
--0-0
---0-
-----
--0--
-0--0
00-1-
1----
----3
--1--
---11

Generation = 6, Population = 55.
--10-
3---0
21101
-----
4-2-2
2---0
1--1-
-----
-1--2
0---0
2-011
1---0
0-1-1
-----
---11
---11
01---
-10-2
1-211
1-0-1
42--3
-121-
0---1
01---

Generation = 9, Population = 53.
1---0
6--03
-2102
1-0--
-23-5
--003
2---1
---0-
--0-3
1-00-
---1-
-----
3----
20--0
0--1-
---1-
--1-0
-1-03
2-3-4
10-32
5-2-6
31-4-
---0-
-2---

Generation = 12, Population = 50.
2-3--
7---6
23--2
-----
-5406
-----
-30-4
-----
21-24
---11
4-3--
-----
4-2--
--011
110-2
---41
---23
--1--
5-3--
2-16-
---1-
3-45-
-2--3
2-0-3

*** Life<FredkinCell> 14x21 ***

Generation = 0, Population = 11.
---------------------
----------0---0------
---------------------
-0--------0----------
---------------------
-----------0---------
---------------------
------0-----------0--
---------------------
-----------0---------
---------------------
---------------------
--0-0----------------
----------------0----

Generation = 1, Population = 39.
----------0---0------
---------0-0-0-0-----
-0------------0------
0-0------0-0---------
-0--------00---------
----------0-0--------
------0----0------0--
-----0-0---------0-0-
------0----0------0--
----------0-0--------
-----------0---------
--0-0----------------
-0---0----------0----
--0-0----------0-0---

Generation = 2, Population = 35.
---------------------
-0------0-0-----0----
---------------------
---0----0-010-0------
---------------------
-0----0--01--0----0--
---------------------
----0---0-------0---0
---------------------
------0--0---0----0--
--0-0----------------
-----------0----0----
0-0-0-0--------------
--------------0-0-0--

Generation = 3, Population = 103.
-0------0-0-----0----
0-0----0---0---0-0---
-0-0-------00-0-0----
--0-0--0--1-1--0-----
-0-0--0-00-0000---0--
0-0--0-001200-0--0-0-
-0--0-0-000--0--0-0-0
---0-0-0-0-----0-0-0-
----0-0-00---0--0-0-0
--0-00-00-0-0-0--0-0-
-0---00--0-0-0--0-0--
0-----0---0-0--0-0---
-------0---0--0---0--
0-0-0-0------0-----0-

Generation = 4, Population = 32.
---------------------
------0----1------0--
---------------------
-0---0--------0---0--
---------------------
-------1--31--10-----
---------------------
-00-----------0-----0
--0-1----------------
-------1---0---00----
---------------------
------1---------0-0--
--0-0-0-0------------
-----------00-------0

Generation = 5, Population = 101.
------0----0------0--
-----0-0--0-0----0-0-
-0---00----0--0------
0-0-0-0------0-0-0-0-
-0---0-0--00---0--0--
------0-014200210----
-00----0--00---0----0
01-00--------0-0---0-
--1--0-0---0--000---0
--0-0-0-0-0-0-0110---
------00---0---0--0--
--0-00200------0---0-
-0----1--0-00---0-0-0
--0-0-0-0-0110-----0-

Generation = 6, Population = 65.
---------------------
-0--01--00---00-0-0-0
---------------------
------1---1-1-01--0-0
---------------------
--0-----1-------100-0
--1-0----------------
1--11-----0-0-0---0-0
0-2-1-0--------------
-01--01---------21--0
------1-0------------
----1--11---0-01--0--
0-0-----0-0----------
------1--012210-0----

Generation = 7, Population = 152.
-0--00--00---00-0-0-0
0-001200110-011------
-0--000-000-00-00----
-----0-0-0----1200---
--0---0-0-0-0-0000---
-0100--1-1-----12-1--
002010--0-0-0-0-00---
2102200--0-----0-0---
10302010--0-0-0-000--
-1-0-1210------13200-
-00-0-2010--0-00000-0
0-00-0-22000--1200-0-
---00-1-101--0-00-0--
0-0--0-0-12---1--0---

Generation = 8, Population = 36.
---------------------
--1---1-----------0-0
---------------------
-00--1---11-------0--
--1-0----------------
---1------4---2-3--0-
---------------------
3---------0---0------
--4-3----------------
---1------0---0----1-
---------------------
-0--------11---------
--0-1-----2-0--------
------1-0--2---------

Generation = 9, Population = 79.
--0---0-----------0-0
-0-0-2-0---------0---
-0---00--00---------0
01-0--1-0221-----0-0-
--20-----0----0-0-00-
---------1-2-0---01-0
0--0------------0--0-
-10-2----0-0-0-0-----
10-0-0-------------0-
---------0-0-0-1--0-0
-0-0-------0--0----0-
0---1----0-2---------
-----01-103--0-------
--0-00---1-----------

Generation = 10, Population = 68.
---------------------
011--3--110-----0----
--0-0----------------
1-010-2-1-321-1---01-
0-3-0-0--------------
0-1-----12------31---
---------------------
3-1-----0------------
2-4-3-1--------------
0----1--0--1--0-32---
----------0-0--------
------2--113001----0-
0-0-1-2-2-4-0-0------
-0--1----2---1-------

Generation = 11, Population = 122.
000--0--000-----0----
1--0--102-11---0-0---
---01-0--0-00-0-0-00-
2-1-1-3---4-2--2-0120
---01-10-0000-0-0000-
1-210-01234----1421--
---------0------00---
4-222-00-0-----------
--5--0-0---0--0-00---
111----1-0---0--430--
0----02-1-1-1---00-0-
0-0-1032-2-----2--0-0
-0--2-3---501-10---0-
---0201--------------

Generation = 12, Population = 60.
--1-0----------------
2--1---------------0-
---------------------
---------25--01-----1
--3-2-2-0------------
--32---2----0--2-----
---------------------
----301--100--0------
------1-0-0-0--------
---1---20--1---15-1--
---------------------
10---1-32-13---3-----
----------6-2-2-0----
-0013--0--222-10---0-

*** Life<FredkinCell> 12x23 ***

Generation = 0, Population = 14.
-0----0----------------
---------0---------0---
-0---------------------
0-------0--------------
--------0--------0-----
-------0---------------
-----------------------
-----------------------
--------0--------0-----
-----------------------
-----------0-----------
--------------------0--

Generation = 4, Population = 45.
--1--0--2-0------1-----
-----0-2-1---0-0---0---
-----12----------------
--0---------0----------
-0--0-2-2---00---0---0-
---0-----2-0-------1---
-0---------0-----------
0-------1-----------0--
----0---0---10---0---0-
-------0------------0--
-------1---0---0-------
----------------0-----0

Generation = 8, Population = 49.
0----1--31----1--1-----
-0-----2---1-----2-1---
-----3--41-1-----1-----
------1---------1---0--
10-------0------0----1-
---------2-----0---23--
-2----2----1-----------
-----------------------
12----0-10------00---0-
---------2---------0---
-0-1---------------0---
0------10---1-----0----

*** Life<FredkinCell> 20x22 ***

Generation = 0, Population = 14.
----------------------
--------------------0-
------------0-0-------
----------------------
-------------------0--
---------------------0
--------0-------------
----------------------
---------------------0
----------------------
----------------------
----------------------
----------------------
--------------0--0----
----------------------
-------------0-----0--
----------------0-----
-0----0---------------
----------------------
----------------------

Generation = 1, Population = 52.
--------------------0-
------------0-0----0-0
-----------0---0----0-
------------0-0----0--
------------------0-00
--------0----------00-
-------0-0-----------0
--------0------------0
--------------------0-
---------------------0
----------------------
----------------------
--------------0--0----
-------------0-00-0---
-------------00--0-0--
------------0-0-0-0-0-
-0----0------0-0-0-0--
0-0--0-0--------0-----
-0----0---------------
----------------------

Generation = 2, Population = 49.
------------0-0-------
------------------0---
----------0-0-0-0--0--
--------------------00
--------0---0-0--0---1
-------------------1-0
------0---0--------0-1
---------------------1
--------0----------0-0
----------------------
---------------------0
--------------0--0----
----------------------
------------01-11-----
----------------0-----
-0----0----0--10-----0
--------------0---0---
---00---0----0-----0--
----------------0-----
-0----0---------------

Generation = 3, Population = 116.
-----------0---0--0---
----------0-----00----
---------0-------0---0
--------0-0-----00--1-
-------0-0-0---00-00--
------0-0-0-0-0--002--
-----0-0-0-0------01--
------0-0-0---------0-
-------0-0--------0--1
--------0----------0--
--------------0--0--0-
-------------0-00-0--0
------------000000----
-----------012-2-0----
-0----0----0000010---0
0-0--0-0--0-00-1--0-0-
-0-00-0-0--0--1--0---0
--0110-0-0--0---0---0-
-0-00-0-0----0-0-0-0--
0-0--0-0--------0-----

Generation = 4, Population = 45.
------------0-0----0--
----------------1----0
----------0-----0-0---
----------------------
---------------1------
-----------------1-30-
----0---------0-------
----------------------
-----------------0----
--------------0--0---0
--------0-------------
-------------1-----0--
----------------1----0
-0----0---0--3----0--0
----------------------
---------0-----2-0---0
------------0-------0-
-01--1----0---0--0----
----------------------
-0----0------0-----0--

Generation = 5, Population = 148.
-----------0---00-0-00
----------0-0-0020000-
---------0-0---01--0-0
----------0----00-0---
--------------0-00-00-
----0---------000--410
---0-0-------0-0-0-10-
----0---------0--0----
--------------0-010--1
--------0----0-0010-0-
-------0-0---00--0-0-0
--------0---0-0-0-0-00
-0----0---0----0-00001
0-0--0-0-0-01-0-10-001
-0----0--00--0-0-00---
--------0-0-0-1---0---
-00--0---000-010---0--
01211-0--0-000-00-0-0-
--0--00---0--00--0-0--
0-0--0-0----0-0---0-0-

Generation = 6, Population = 121.
-----------------010-1
--------------1---11-0
--------0------12-010-
----------------10-010
----0-----0--01-110---
---------------1-105-1
--0---0-----0--101----
--------------1----001
----0---0-----10---0--
------------01-11--0-0
------0---0-----01---1
-0----0---00-110--1--1
--------0-----0---11-2
---00----1-123--21--1-
------------0---1---00
--0--000---0--22--1---
----------1---2---0---
12--2-1001---1--10---0
------------0-------0-
--10010-0-00-010---0-0

Generation = 7, Population = 202.
--------------0-012--2
--------0----0--2-2201
-------0-0-----2-0---0
----0---0-0--00-2---21
---0-0---0-00121---00-
--0-0-0---0-00-2-216--
-0-0-0-0---0-0------0-
--0-0-0-0---0020000--2
---0-0-0-0--0-----0---
----0-0-0-00120---01-1
-0---010-01-0-00-2-00-
0-0--01000-1-221--2-0-
-0-00-00--0-001-1--203
--0110-----234-2-2--21
--000000-0-01-0-2-00-1
-0-001-10----0-3-02000
000-00--0-----3-0-10-0
2321--2--2-----021----
0000-0-0-00--00000---0
-02---1---1101-10-0-0-

Generation = 8, Population = 54.
--------0------------3
------------0---3----2
----0-0------------10-
----------------------
-----------11-3--1----
-------------103-3--1-
0---------------0-----
-------------1-----0--
-------------0-00-----
-0----1-------------0-
------------1-1-------
----------------------
-------------------3--
------0--1---------0-2
--------0-------------
-1---20----0-----1---1
--------1-------1---01
3----1---3---10----0--
----------------------
--------------1--0----

Generation = 9, Population = 145.
-------0-0--0---0---04
----0-0-0--0-0-0-0-2-3
---0---0----0---2-021-
----0-0----00-0--0-02-
----------02214-120-0-
0----------0-2140416-1
-0------------0----10-
0-----------0220--0-0-
-0----0-----01-111-00-
0-0--0-0----12011--1-1
-0----1----0---0----0-
------------0-2----0--
------0--0--------1403
-----0-0--0-------01--
-0---0-0---0-----0-0--
0-0-0311--0-0-----2--2
00----00---0-030----1-
-3--2-2---0-02102-0--0
0----0---0---0---0-0--
-------------1-10-0---

Generation = 10, Population = 137.
----0---0-0---------1-
----------0-------23-4
--0-0-0----01-0---1---
------------101021--31
0---0-0--01-3251----1-
-----------10---152---
0-0--------000-1010---
-0----0----0-33------2
0----------012-2220---
---00---0----3----02--
----------1-1011---0--
-0-------0---------101
--------0---0-1--0---4
-0--11010----------2-2
------0-0-0-----2--101
1---142200----23------
------1-1-1---4----0-1
3421-13----01-2131----
--------0-------0---00
0----1---0--02-210----

Generation = 11, Population = 205.
---0-0-0--10------2---
--0---0-001-0-1--0-40-
-0-----0---1-01-2-2-1-
0-0------00-21-1-2-0-2
-0-0---00122436-1-002-
--0-0-0--0--1214-6-61-
-0-0--0---011-0212-1-1
0----0-0--0--440----0-
---00-0-0-0--313-----1
0-0110-0-0001---1---0-
-0-00---0---21-20----1
0-0----------2-1-02---
----000-1--0---01-1---
0-012-1-110-3-0-22032-
00---0---0-0--0--00---
-1-02----10--0-4----0-
-00000-020--00-0101---
4--2-2-0---12---42000-
-000--00---0-000-0-011
-0--0-1---1113-3210-00

Generation = 12, Population = 116.
------0----1--0-----1-
--------1----020---5-4
--0-------0----2----2-
-------------2-----1--
-------1--3-------1---
-0----1--10123---727--
--0---1-------1----2--
---------0-----1-0---2
---------0----2-----0-
-01--11--11--30121-2-1
0---------1-------0---
-0---01----1-3---1-1-1
--------2----0------0-
101---2--21---12-3--32
----0---------1-------
--0--4-2-21--125---0-2
----1-----------21----
-42-233--30--221--11--
--------0-------------
01----2--022--1--210--

Generation = 13, Population = 201.
-----0-00-1-0-1-------
--0---00-010013-3-2---
-0-0----00-1---32--2--
--0----0----2-11------
-0------0-4-4-----20--
0----02-021--4--183-1-
---0-020--011------301
--0---0-010---4---00--
-00--00-0-----332----1
-12112200--0141--20-0-
-00-------2---1202-0--
--0-01200----42-0-2-0-
0-0--0-0--0001-0----14
2-2121-1-322---3--03-3
00-0--00-------0-0-10-
-1-02----3200236-12---
-0-02010-------032---1
453---40-41123-2--220-
0-0-00-0-0-0-0-0-0----
122--1-0-1-313-323-10-

Generation = 14, Population = 178.
--0-0-0-102110200-2---
------1---211--04-----
0---0-001-02101--0--2-
-0----0-000-3-2---0---
-----00-115-5-611--1--
---00--0--2-2-142---2-
0------1001-2-1-120-12
--1--0-0----045-001---
0-1---10--001-4-3--0--
02---33--1-1--212-12--
0-1------0--212-1---0-
0---12-110-1----11-11-
1---0-0----1--11------
-0-2--2--43--41-2-1--4
--0-0-1-0---10---1--1-
---1----04-----7023-02
--0-3-2-2------1--10--
-6---3-1---2-----23-1-
----1-0---0-----01----
---0-2-1-2---------210

*** Life<FredkinCell> 15x8 ***

Generation = 0, Population = 11.
--0-----
--------
---0----
--0-0---
--------
--------
--------
--------
-------0
---0----
--00---0
--------
--------
0--0----
--------

Generation = 4, Population = 31.
0--1--0-
--------
--2----0
------0-
--1----0
---1----
--1----0
--0-1---
---1-2--
0--2---0
0--1-000
--------
-------0
2-1-1--1
--10---0

Generation = 8, Population = 29.
----1-23
---0----
--4--0-1
----2-1-
---0----
1--2----
--5-----
--------
-21-----
4----1--
-4--340-
--2-0---
--32---2
-----13-
-------4

*** Life<FredkinCell> 12x16 ***

Generation = 0, Population = 15.
----------------
---0------------
-------0--------
-----------0----
---0------0----0
--------0-------
-0-------00-----
------------0---
------0---------
-------------0--
-------------00-
----------------

Generation = 2, Population = 51.
-------0--------
-0---0-----0----
---1-0---00----0
---1----00---0--
-----0-0110-00-0
------0---000---
------000-211--0
--------0-1--10-
-0--0---000--10-
-----------01--0
------0----01--1
-------------1--

Generation = 4, Population = 39.
---0---0--0----0
---1---10-------
-1-3-----020----
-------0----0--0
-------2---1-00-
---00-------20--
-0----00--------
--------0--0----
--11-----------0
--------11-----2
-0-----------0-3
------------01--

Generation = 6, Population = 88.
-------20--100--
-1----11-00-0--1
-1---1-0022-0-01
----00-2121-0-00
---1-014-21-00-0
-11--1200-1-4-0-
--1-11-201-3-100
---10-1-0-2-1--1
01--1000--------
------013-1-1--2
--1--------0-2-5
--------0001211-

Generation = 8, Population = 46.
-1----0--00-----
---1----1--1-0--
---4------4--00-
---2-------0-2--
--01-----2-1--1-
1--1------------
-03--1---3---3-0
----2-------11--
2-----0-------0-
---0-0-----11---
-1---011-1-2----
--------2--3----

Generation = 10, Population = 100.
-1--0-03-2-2120-
-3-3-13--01----2
--14-20-2-4---23
00---1--23-----1
1-231--5--232112
122323-----25---
--501-2--3-3-5--
1-1--03---2-3-03
2---2-010--101-2
-1-002-343213-1-
1---101-1--2-31-
---0-11-201-32--

Generation = 12, Population = 72.
-3----0--4-4--2-
1---1---10-112--
--3--4-1-2---2--
----1----5--14--
-0---23--2---1-2
--2-25-10---51--
01-2-1-3-34--511
3--2----20---1-3
--324----0-1----
11-2-----3-1---3
---1--1--21-----
---0-1-0---552-0

Generation = 14, Population = 95.
-311110-16--1-2-
1---1--2----1-03
1--51----2-2-24-
0----31--532--12
20242---2-4--112
--2--7-121-47-1-
0--4233-03-5---1
---22-4-42215--5
--5-6----0-3--03
-312----5---4--3
-221-0-2-2--2---
0--2-1---127542-

*** Life<FredkinCell> 19x14 ***

Generation = 0, Population = 13.
--------------
-0----0-------
-0----0-------
--------------
----------0---
--------0-----
--------------
--------------
--0-----------
--------------
------0-------
--------------
----0---------
-00-----------
--------------
--------------
--------------
----0---------
-0------------

Generation = 1, Population = 51.
-0----0-------
010--010------
010--010------
-0----0---0---
--------00-0--
-------0-00---
--------0-----
--0-----------
-0-0----------
--0---0-------
-----0-0------
----0-0-------
-000-0--------
01100---------
-00-----------
--------------
----0---------
-0-0-0--------
0-0-0---------

Generation = 2, Population = 41.
-1----1-------
---00---0-----
---00---0-0---
-1----1-0-----
-0----0-1---0-
------0---1---
--0-------0---
--------0-----
0---0-0-------
--------------
--0-----0-----
-00-----------
--1-----------
1--11---------
----0---------
-00-0---------
-0------------
--0---0-------
-0-0----------

Generation = 3, Population = 108.
0-0000-00-----
-10--010100---
-10--010---0--
0200002--00-0-
010--0--2000-0
-00--01000200-
-0-0--0-0010--
0-0-0-00-00---
-0-0---00-----
0-0-0-0-0-----
--10---0-0----
0110----0-----
0-2-0---------
-1-2-0--------
000--0--------
0-1-10--------
010-0-0-------
-0---0-0------
0-0-0-0-------

Generation = 4, Population = 47.
-1----1---0---
--1--12-2-1---
-21--1----0---
--------------
--1---0-------
-1--0-2-----1-
-1------------
--------------
0---0-0---0---
-01-----1-----
--2-------0---
--------------
1-3-----0-----
12--110-------
-1----0-------
--------------
-2--1---------
010-0---0-----
-0---0--------

Generation = 5, Population = 101.
0-----200010--
-1200------0--
03-002--0010--
-2---02---0---
---00010----0-
02-0--30---0-0
020-0-0-----0-
00--0-0---0---
--00---000-0--
-1-00-00-0----
--30----00-0--
0-------0-0---
20-00000-0----
---22--00-----
-20-0-10------
----1-0-------
-3-020--0-----
1-1-1--0-0----
-1----0-0-----

Generation = 6, Population = 95.
--00003-----0-
0--1--20--1-0-
141-1--01-2-0-
-30-01--0-1-0-
0-1--1--2-0---
--010-4-0-2---
1-101-----1---
--0-1-1-0---0-
001-0-0---0-0-
0--11-1---0---
0-4---0---0-0-
1-1-000-1-----
-1--1---------
1---3-011-----
0310----------
--1--01-0-----
--01-1--------
---02-----0---
----00-0------

Generation = 7, Population = 105.
0111------1010
1-220----02--0
-5-02--------0
0-1---2-----10
-1--02-0---00-
-212-0--1--0--
--2120---0200-
---0--2--0-010
---0---0001-10
--12---0-0-0--
--5----0001--0
212------00-0-
2--0---0------
221-4-1-20----
--21-0-0------
0--01-2--0----
-3--22--0-0---
-----0-0-0-0--
-----1--0-0---

Generation = 8, Population = 41.
--2-----------
2----1--21----
1----21--02---
--------------
-21-1-1---0---
0-2---4-----1-
--------------
--------------
----0-----2---
-1--1-1-------
0-----0-------
--------------
-13-------0-0-
-----1--310---
--------------
--------------
--0-----------
-1----------0-
----020--0----

Generation = 9, Population = 109.
01-1-0--00----
312-02-03-----
25--2-20--30--
031-01---0----
-3----20-0-00-
-2320050--20-0
1-2---0-----0-
----1-----0---
-0-0100--0-0--
--122-20--0---
----0010------
212---0---0-0-
2240-0--0-1--0
-21-4-114--00-
-----0--000---
--1-----------
---1--------0-
1---200--0-0-0
-1-01-100-0-0-
