*** Life<ConwayCell> 23x7 ***

Generation = 0, Population = 14.
......*
..*....
.......
.......
.......
..*....
...*...
*..**..
...*...
.......
.......
.......
....*..
.......
..*....
.......
.......
.......
.....*.
..*..*.
.......
......*
.......

Generation = 2, Population = 6.
.......
.......
.......
.......
.......
...*...
..*.*..
.....*.
..*.*..
.......
.......
.......
.......
.......
.......
.......
.......
.......
.......
.......
.......
.......
.......

*** Life<ConwayCell> 9x18 ***

Generation = 0, Population = 12.
........*.........
..........*.......
..................
........*.........
..................
..*...........*...
*..............*..
..*...............
...**......*....*.

Generation = 3, Population = 0.
..................
..................
..................
..................
..................
..................
..................
..................
..................

Generation = 6, Population = 0.
..................
..................
..................
..................
..................
..................
..................
..................
..................

*** Life<ConwayCell> 5x6 ***

Generation = 0, Population = 12.
.**.*.
.....*
.****.
*....*
.*..*.

Generation = 1, Population = 8.
......
.....*
.*****
*....*
......

Generation = 2, Population = 11.
......
..**.*
.***.*
.***.*
......

Generation = 3, Population = 6.
......
.*.*..
.....*
.*.*..
..*...

Generation = 4, Population = 3.
......
......
....*.
..*...
..*...

Generation = 5, Population = 1.
......
......
......
...*..
......

Generation = 6, Population = 0.
......
......
......
......
......

Generation = 7, Population = 0.
......
......
......
......
......

Generation = 8, Population = 0.
......
......
......
......
......

Generation = 9, Population = 0.
......
......
......
......
......

Generation = 10, Population = 0.
......
......
......
......
......

Generation = 11, Population = 0.
......
......
......
......
......

Generation = 12, Population = 0.
......
......
......
......
......

Generation = 13, Population = 0.
......
......
......
......
......

*** Life<ConwayCell> 19x10 ***

Generation = 0, Population = 15.
....*.....
..........
*.*.......
..........
....*...*.
..........
..........
......*...
.......*..
........**
.......*..
.......*..
..........
*.........
..........
..........
.........*
..........
*......*..

Generation = 1, Population = 5.
..........
..........
..........
..........
..........
..........
..........
..........
.......**.
.......**.
.......*..
..........
..........
..........
..........
..........
..........
..........
..........

Generation = 2, Population = 5.
..........
..........
..........
..........
..........
..........
..........
..........
.......**.
......*...
.......**.
..........
..........
..........
..........
..........
..........
..........
..........

Generation = 3, Population = 3.
..........
..........
..........
..........
..........
..........
..........
..........
.......*..
......*...
.......*..
..........
..........
..........
..........
..........
..........
..........
..........

Generation = 4, Population = 2.
..........
..........
..........
..........
..........
..........
..........
..........
..........
......**..
..........
..........
..........
..........
..........
..........
..........
..........
..........

Generation = 5, Population = 0.
..........
..........
..........
..........
..........
..........
..........
..........
..........
..........
..........
..........
..........
..........
..........
..........
..........
..........
..........

Generation = 6, Population = 0.
..........
..........
..........
..........
..........
..........
..........
..........
..........
..........
..........
..........
..........
..........
..........
..........
..........
..........
..........

Generation = 7, Population = 0.
..........
..........
..........
..........
..........
..........
..........
..........
..........
..........
..........
..........
..........
..........
..........
..........
..........
..........
..........

Generation = 8, Population = 0.
..........
..........
..........
..........
..........
..........
..........
..........
..........
..........
..........
..........
..........
..........
..........
..........
..........
..........
..........

Generation = 9, Population = 0.
..........
..........
..........
..........
..........
..........
..........
..........
..........
..........
..........
..........
..........
..........
..........
..........
..........
..........
..........

Generation = 10, Population = 0.
..........
..........
..........
..........
..........
..........
..........
..........
..........
..........
..........
..........
..........
..........
..........
..........
..........
..........
..........

Generation = 11, Population = 0.
..........
..........
..........
..........
..........
..........
..........
..........
..........
..........
..........
..........
..........
..........
..........
..........
..........
..........
..........

Generation = 12, Population = 0.
..........
..........
..........
..........
..........
..........
..........
..........
..........
..........
..........
..........
..........
..........
..........
..........
..........
..........
..........

Generation = 13, Population = 0.
..........
..........
..........
..........
..........
..........
..........
..........
..........
..........
..........
..........
..........
..........
..........
..........
..........
..........
..........

Generation = 14, Population = 0.
..........
..........
..........
..........
..........
..........
..........
..........
..........
..........
..........
..........
..........
..........
..........
..........
..........
..........
..........

*** Life<ConwayCell> 17x17 ***

Generation = 0, Population = 12.
.........*.*.....
.................
......*..........
........*........
.................
.................
.....**..........
.................
*................
...............*.
................*
.....*...........
.................
..............*..
.................
.................
*................

Generation = 4, Population = 0.
.................
.................
.................
.................
.................
.................
.................
.................
.................
.................
.................
.................
.................
.................
.................
.................
.................

*** Life<ConwayCell> 22x8 ***

Generation = 0, Population = 12.
........
........
....*...
........
..*.....
*...*...
........
......*.
........
........
*...*...
........
........
..*.....
........
.*......
........
........
..*.....
...*....
.....*..
........

Generation = 3, Population = 0.
........
........
........
........
........
........
........
........
........
........
........
........
........
........
........
........
........
........
........
........
........
........

*** Life<ConwayCell> 13x9 ***

Generation = 0, Population = 11.
.........
.........
..*....*.
.........
..*......
.....*...
......*..
.........
*.....*.*
.........
.......*.
...*.....
....*....

Generation = 5, Population = 0.
.........
.........
.........
.........
.........
.........
.........
.........
.........
.........
.........
.........
.........

Generation = 10, Population = 0.
.........
.........
.........
.........
.........
.........
.........
.........
.........
.........
.........
.........
.........

*** Life<ConwayCell> 24x19 ***

Generation = 0, Population = 15.
...................
...................
...................
...................
..............*....
.................*.
...................
.........*.........
*..................
..........*........
.........*.........
...................
...............*...
...................
*.*................
......*......*.....
........*..........
......*............
.................*.
*..................
...................
...................
...................
...................

Generation = 4, Population = 0.
...................
...................
...................
...................
...................
...................
...................
...................
...................
...................
...................
...................
...................
...................
...................
...................
...................
...................
...................
...................
...................
...................
...................
...................

Generation = 8, Population = 0.
...................
...................
...................
...................
...................
...................
...................
...................
...................
...................
...................
...................
...................
...................
...................
...................
...................
...................
...................
...................
...................
...................
...................
...................

*** Life<ConwayCell> 8x18 ***

Generation = 0, Population = 13.
........*.........
..*.........*.....
.**..**...........
....*..*..........
.................*
*.................
..............*...
.......*..........

Generation = 4, Population = 5.
..................
..................
..*..**...........
.....**...........
..................
..................
..................
..................

Generation = 8, Population = 4.
..................
..................
.....**...........
.....**...........
..................
..................
..................
..................

*** Life<ConwayCell> 14x5 ***

Generation = 0, Population = 11.
*....
.....
.....
..*..
.....
.*.*.
.*...
.....
*....
....*
*..*.
..*..
....*
.....

Generation = 4, Population = 3.
.....
.....
.....
.....
.....
.***.
.....
.....
.....
.....
.....
.....
.....
.....

Generation = 8, Population = 3.
.....
.....
.....
.....
.....
.***.
.....
.....
.....
.....
.....
.....
.....
.....

*** Life<ConwayCell> 10x6 ***

Generation = 0, Population = 12.
......
.*....
.**...
....*.
....*.
......
......
...**.
...**.
**.*..

Generation = 4, Population = 5.
......
.**...
.*.*..
..*...
......
......
......
......
......
......

Generation = 8, Population = 5.
......
.**...
.*.*..
..*...
......
......
......
......
......
......

*** Life<ConwayCell> 7x23 ***

Generation = 0, Population = 11.
............*..........
............*......*...
......*....*.........*.
.......................
................*.....*
.........*.....*.......
..............*........

Generation = 2, Population = 0.
.......................
.......................
.......................
.......................
.......................
.......................
.......................

Generation = 4, Population = 0.
.......................
.......................
.......................
.......................
.......................
.......................
.......................

Generation = 6, Population = 0.
.......................
.......................
.......................
.......................
.......................
.......................
.......................

Generation = 8, Population = 0.
.......................
.......................
.......................
.......................
.......................
.......................
.......................

Generation = 10, Population = 0.
.......................
.......................
.......................
.......................
.......................
.......................
.......................

*** Life<ConwayCell> 19x24 ***

Generation = 0, Population = 15.
.....................*..
........................
........................
.........*.*............
........*...............
........................
...**...................
........................
*.....................*.
......*......*..........
.....................*..
........................
*.......................
........................
........................
.............*..........
...*.....*..............
........................
........................

Generation = 2, Population = 0.
........................
........................
........................
........................
........................
........................
........................
........................
........................
........................
........................
........................
........................
........................
........................
........................
........................
........................
........................

Generation = 4, Population = 0.
........................
........................
........................
........................
........................
........................
........................
........................
........................
........................
........................
........................
........................
........................
........................
........................
........................
........................
........................

Generation = 6, Population = 0.
........................
........................
........................
........................
........................
........................
........................
........................
........................
........................
........................
........................
........................
........................
........................
........................
........................
........................
........................

Generation = 8, Population = 0.
........................
........................
........................
........................
........................
........................
........................
........................
........................
........................
........................
........................
........................
........................
........................
........................
........................
........................
........................

Generation = 10, Population = 0.
........................
........................
........................
........................
........................
........................
........................
........................
........................
........................
........................
........................
........................
........................
........................
........................
........................
........................
........................

Generation = 12, Population = 0.
........................
........................
........................
........................
........................
........................
........................
........................
........................
........................
........................
........................
........................
........................
........................
........................
........................
........................
........................

*** Life<ConwayCell> 15x19 ***

Generation = 0, Population = 10.
...................
...................
..........*........
.................*.
..*..*.............
...............*...
...................
............*......
...................
....*..............
..*................
.....*.............
...................
......*............
...................

Generation = 5, Population = 0.
...................
...................
...................
...................
...................
...................
...................
...................
...................
...................
...................
...................
...................
...................
...................

Generation = 10, Population = 0.
...................
...................
...................
...................
...................
...................
...................
...................
...................
...................
...................
...................
...................
...................
...................

*** Life<ConwayCell> 8x13 ***

Generation = 0, Population = 14.
*.......*....
......*...*..
.....*.......
..*...*......
....**.**..*.
.............
..........*..
..........*..

Generation = 2, Population = 7.
.............
.............
.....***.....
....*........
.....*.*.....
......*......
.............
.............

Generation = 4, Population = 12.
.............
.....**......
.....***.....
....*..*.....
.....***.....
.....**......
.............
.............

Generation = 6, Population = 17.
.............
......*......
....*****....
...***.**....
....*****....
......*......
.............
.............

Generation = 8, Population = 5.
.............
.............
.............
..***...**...
.............
.............
.............
.............

*** Life<ConwayCell> 21x12 ***

Generation = 0, Population = 10.
............
..........*.
............
............
........*...
............
....*......*
..........*.
............
............
............
.*..*.......
............
............
............
*...........
............
............
.....*......
............
.*..........

Generation = 3, Population = 0.
............
............
............
............
............
............
............
............
............
............
............
............
............
............
............
............
............
............
............
............
............

Generation = 6, Population = 0.
............
............
............
............
............
............
............
............
............
............
............
............
............
............
............
............
............
............
............
............
............

*** Life<ConwayCell> 20x14 ***

Generation = 0, Population = 14.
.....*........
..*...........
........*.....
*.............
*............*
......*.......
..............
.........*....
.........*....
..*...........
..............
..............
.*............
..............
..............
..............
..............
...........*..
...*..........
.............*

Generation = 5, Population = 0.
..............
..............
..............
..............
..............
..............
..............
..............
..............
..............
..............
..............
..............
..............
..............
..............
..............
..............
..............
..............

*** Life<ConwayCell> 15x22 ***

Generation = 0, Population = 10.
..........*...*.......
............*.*.......
......................
....*.................
......................
......................
................*..*..
.....................*
......................
......................
....*.................
.....*................
......................
......................
......................

*** Life<ConwayCell> 22x23 ***

Generation = 0, Population = 12.
.....................*.
.......................
.....*.*...............
.............*.........
.......................
....*..................
.......................
.......................
.....*..............*..
.......................
.......................
.*.....................
.......................
.......................
.......................
.......................
.......................
.......................
..............*........
.......................
.......................
.....*........**.......

Generation = 5, Population = 0.
.......................
.......................
.......................
.......................
.......................
.......................
.......................
.......................
.......................
.......................
.......................
.......................
.......................
.......................
.......................
.......................
.......................
.......................
.......................
.......................
.......................
.......................

*** Life<ConwayCell> 5x13 ***

Generation = 0, Population = 12.
..*.*..*.....
.......*..*..
.*...*.....*.
......*..*...
..*...*......

Generation = 4, Population = 6.
.............
......*......
.....*.*.....
.....*.*.....
......*......

Generation = 8, Population = 6.
.............
......*......
.....*.*.....
.....*.*.....
......*......

Generation = 12, Population = 6.
.............
......*......
.....*.*.....
.....*.*.....
......*......

*** Life<ConwayCell> 24x5 ***

Generation = 0, Population = 10.
.....
.....
.*...
.....
*....
*...*
.....
.....
.....
.....
....*
.....
.....
.....
.....
.....
...*.
.....
.*...
.....
..*..
...**
.....
.....

Generation = 3, Population = 0.
.....
.....
.....
.....
.....
.....
.....
.....
.....
.....
.....
.....
.....
.....
.....
.....
.....
.....
.....
.....
.....
.....
.....
.....

Generation = 6, Population = 0.
.....
.....
.....
.....
.....
.....
.....
.....
.....
.....
.....
.....
.....
.....
.....
.....
.....
.....
.....
.....
.....
.....
.....
.....

Generation = 9, Population = 0.
.....
.....
.....
.....
.....
.....
.....
.....
.....
.....
.....
.....
.....
.....
.....
.....
.....
.....
.....
.....
.....
.....
.....
.....

Generation = 12, Population = 0.
.....
.....
.....
.....
.....
.....
.....
.....
.....
.....
.....
.....
.....
.....
.....
.....
.....
.....
.....
.....
.....
.....
.....
.....

*** Life<ConwayCell> 14x21 ***

Generation = 0, Population = 11.
.....................
..........*...*......
.....................
.*........*..........
.....................
...........*.........
.....................
......*...........*..
.....................
...........*.........
.....................
.....................
..*.*................
................*....

Generation = 1, Population = 0.
.....................
.....................
.....................
.....................
.....................
.....................
.....................
.....................
.....................
.....................
.....................
.....................
.....................
.....................

Generation = 2, Population = 0.
.....................
.....................
.....................
.....................
.....................
.....................
.....................
.....................
.....................
.....................
.....................
.....................
.....................
.....................

Generation = 3, Population = 0.
.....................
.....................
.....................
.....................
.....................
.....................
.....................
.....................
.....................
.....................
.....................
.....................
.....................
.....................

Generation = 4, Population = 0.
.....................
.....................
.....................
.....................
.....................
.....................
.....................
.....................
.....................
.....................
.....................
.....................
.....................
.....................

Generation = 5, Population = 0.
.....................
.....................
.....................
.....................
.....................
.....................
.....................
.....................
.....................
.....................
.....................
.....................
.....................
.....................

Generation = 6, Population = 0.
.....................
.....................
.....................
.....................
.....................
.....................
.....................
.....................
.....................
.....................
.....................
.....................
.....................
.....................

Generation = 7, Population = 0.
.....................
.....................
.....................
.....................
.....................
.....................
.....................
.....................
.....................
.....................
.....................
.....................
.....................
.....................

Generation = 8, Population = 0.
.....................
.....................
.....................
.....................
.....................
.....................
.....................
.....................
.....................
.....................
.....................
.....................
.....................
.....................

Generation = 9, Population = 0.
.....................
.....................
.....................
.....................
.....................
.....................
.....................
.....................
.....................
.....................
.....................
.....................
.....................
.....................

Generation = 10, Population = 0.
.....................
.....................
.....................
.....................
.....................
.....................
.....................
.....................
.....................
.....................
.....................
.....................
.....................
.....................

Generation = 11, Population = 0.
.....................
.....................
.....................
.....................
.....................
.....................
.....................
.....................
.....................
.....................
.....................
.....................
.....................
.....................

Generation = 12, Population = 0.
.....................
.....................
.....................
.....................
.....................
.....................
.....................
.....................
.....................
.....................
.....................
.....................
.....................
.....................

*** Life<ConwayCell> 12x23 ***

Generation = 0, Population = 14.
.*....*................
.........*.........*...
.*.....................
*.......*..............
........*........*.....
.......*...............
.......................
.......................
........*........*.....
.......................
...........*...........
....................*..

Generation = 4, Population = 0.
.......................
.......................
.......................
.......................
.......................
.......................
.......................
.......................
.......................
.......................
.......................
.......................

Generation = 8, Population = 0.
.......................
.......................
.......................
.......................
.......................
.......................
.......................
.......................
.......................
.......................
.......................
.......................

*** Life<ConwayCell> 20x22 ***

Generation = 0, Population = 14.
......................
....................*.
............*.*.......
......................
...................*..
.....................*
........*.............
......................
.....................*
......................
......................
......................
......................
..............*..*....
......................
.............*.....*..
................*.....
.*....*...............
......................
......................

Generation = 1, Population = 0.
......................
......................
......................
......................
......................
......................
......................
......................
......................
......................
......................
......................
......................
......................
......................
......................
......................
......................
......................
......................

Generation = 2, Population = 0.
......................
......................
......................
......................
......................
......................
......................
......................
......................
......................
......................
......................
......................
......................
......................
......................
......................
......................
......................
......................

Generation = 3, Population = 0.
......................
......................
......................
......................
......................
......................
......................
......................
......................
......................
......................
......................
......................
......................
......................
......................
......................
......................
......................
......................

Generation = 4, Population = 0.
......................
......................
......................
......................
......................
......................
......................
......................
......................
......................
......................
......................
......................
......................
......................
......................
......................
......................
......................
......................

Generation = 5, Population = 0.
......................
......................
......................
......................
......................
......................
......................
......................
......................
......................
......................
......................
......................
......................
......................
......................
......................
......................
......................
......................

Generation = 6, Population = 0.
......................
......................
......................
......................
......................
......................
......................
......................
......................
......................
......................
......................
......................
......................
......................
......................
......................
......................
......................
......................

Generation = 7, Population = 0.
......................
......................
......................
......................
......................
......................
......................
......................
......................
......................
......................
......................
......................
......................
......................
......................
......................
......................
......................
......................

Generation = 8, Population = 0.
......................
......................
......................
......................
......................
......................
......................
......................
......................
......................
......................
......................
......................
......................
......................
......................
......................
......................
......................
......................

Generation = 9, Population = 0.
......................
......................
......................
......................
......................
......................
......................
......................
......................
......................
......................
......................
......................
......................
......................
......................
......................
......................
......................
......................

Generation = 10, Population = 0.
......................
......................
......................
......................
......................
......................
......................
......................
......................
......................
......................
......................
......................
......................
......................
......................
......................
......................
......................
......................

Generation = 11, Population = 0.
......................
......................
......................
......................
......................
......................
......................
......................
......................
......................
......................
......................
......................
......................
......................
......................
......................
......................
......................
......................

Generation = 12, Population = 0.
......................
......................
......................
......................
......................
......................
......................
......................
......................
......................
......................
......................
......................
......................
......................
......................
......................
......................
......................
......................

Generation = 13, Population = 0.
......................
......................
......................
......................
......................
......................
......................
......................
......................
......................
......................
......................
......................
......................
......................
......................
......................
......................
......................
......................

Generation = 14, Population = 0.
......................
......................
......................
......................
......................
......................
......................
......................
......................
......................
......................
......................
......................
......................
......................
......................
......................
......................
......................
......................

*** Life<ConwayCell> 15x8 ***

Generation = 0, Population = 11.
..*.....
........
...*....
..*.*...
........
........
........
........
.......*
...*....
..**...*
........
........
*..*....
........

Generation = 4, Population = 4.
........
........
........
........
........
........
........
........
........
..**....
..**....
........
........
........
........

Generation = 8, Population = 4.
........
........
........
........
........
........
........
........
........
..**....
..**....
........
........
........
........

*** Life<ConwayCell> 12x16 ***

Generation = 0, Population = 15.
................
...*............
.......*........
...........*....
...*......*....*
........*.......
.*.......**.....
............*...
......*.........
.............*..
.............**.
................

Generation = 2, Population = 4.
................
................
................
................
................
................
................
................
................
.............**.
.............**.
................

Generation = 4, Population = 4.
................
................
................
................
................
................
................
................
................
.............**.
.............**.
................

Generation = 6, Population = 4.
................
................
................
................
................
................
................
................
................
.............**.
.............**.
................

Generation = 8, Population = 4.
................
................
................
................
................
................
................
................
................
.............**.
.............**.
................

Generation = 10, Population = 4.
................
................
................
................
................
................
................
................
................
.............**.
.............**.
................

Generation = 12, Population = 4.
................
................
................
................
................
................
................
................
................
.............**.
.............**.
................

Generation = 14, Population = 4.
................
................
................
................
................
................
................
................
................
.............**.
.............**.
................

*** Life<ConwayCell> 19x14 ***

Generation = 0, Population = 13.
..............
.*....*.......
.*....*.......
..............
..........*...
........*.....
..............
..............
..*...........
..............
......*.......
..............
....*.........
.**...........
..............
..............
..............
....*.........
.*............

Generation = 1, Population = 0.
..............
..............
..............
..............
..............
..............
..............
..............
..............
..............
..............
..............
..............
..............
..............
..............
..............
..............
..............

Generation = 2, Population = 0.
..............
..............
..............
..............
..............
..............
..............
..............
..............
..............
..............
..............
..............
..............
..............
..............
..............
..............
..............

Generation = 3, Population = 0.
..............
..............
..............
..............
..............
..............
..............
..............
..............
..............
..............
..............
..............
..............
..............
..............
..............
..............
..............

Generation = 4, Population = 0.
..............
..............
..............
..............
..............
..............
..............
..............
..............
..............
..............
..............
..............
..............
..............
..............
..............
..............
..............

Generation = 5, Population = 0.
..............
..............
..............
..............
..............
..............
..............
..............
..............
..............
..............
..............
..............
..............
..............
..............
..............
..............
..............

Generation = 6, Population = 0.
..............
..............
..............
..............
..............
..............
..............
..............
..............
..............
..............
..............
..............
..............
..............
..............
..............
..............
..............

Generation = 7, Population = 0.
..............
..............
..............
..............
..............
..............
..............
..............
..............
..............
..............
..............
..............
..............
..............
..............
..............
..............
..............

Generation = 8, Population = 0.
..............
..............
..............
..............
..............
..............
..............
..............
..............
..............
..............
..............
..............
..............
..............
..............
..............
..............
..............

Generation = 9, Population = 0.
..............
..............
..............
..............
..............
..............
..............
..............
..............
..............
..............
..............
..............
..............
..............
..............
..............
..............
..............
