27

23 7
14
19 2
5 2
21 6
6 3
7 0
7 3
12 4
0 6
1 2
19 5
7 4
18 5
8 3
14 2
3 2

9 18
12
8 3
6 0
6 15
5 14
3 8
8 16
5 2
7 2
8 4
1 10
8 11
0 8
7 3

5 6
14
2 1
2 4
3 0
2 3
0 2
1 5
3 5
0 1
4 4
3 0
4 1
0 4
2 4
2 2
13 1

19 10
15
9 9
2 2
0 4
4 4
8 7
2 0
10 7
18 7
4 8
9 8
11 7
13 0
18 0
7 6
16 9
14 1

17 17
13
16 0
9 15
13 14
0 11
11 5
10 16
2 6
8 0
6 5
0 9
13 14
6 6
3 8
5 4

22 8
12
2 4
13 2
15 1
19 3
18 2
5 0
10 4
20 5
5 4
4 2
10 0
7 6
3 3

13 9
11
8 6
8 0
2 2
12 4
6 6
5 5
10 7
2 7
8 8
4 2
11 3
12 5

24 19
15
14 0
18 17
15 13
5 17
17 6
7 9
15 6
8 0
19 0
9 10
14 2
4 14
10 9
12 15
16 8
10 4

8 18
14
3 4
1 2
3 7
2 6
1 2
2 1
1 12
6 14
2 2
4 17
2 5
5 0
7 7
0 8
11 4

14 5
11
10 0
5 3
9 4
0 0
10 3
12 4
8 0
5 1
3 2
6 1
11 2
9 4

10 6
12
2 1
3 4
1 1
8 3
9 3
4 4
9 1
9 0
7 4
2 2
7 3
8 4
9 4

7 23
11
0 12
2 11
1 12
6 14
5 15
1 19
2 6
2 21
4 16
5 9
4 22
10 2

19 24
15
16 9
6 3
9 6
8 0
4 8
6 4
15 13
12 0
9 13
3 9
8 22
16 3
10 21
3 11
0 21
13 2

15 19
11
11 5
7 12
9 4
13 6
3 17
4 5
10 2
4 2
2 10
4 2
5 15
10 5

8 13
15
0 0
4 8
0 8
1 6
1 6
7 10
4 4
3 6
4 7
2 5
4 5
6 10
4 11
3 2
1 10
8 2

21 12
10
15 0
20 1
18 5
11 4
4 8
7 10
6 11
1 10
11 1
6 4
8 3

20 14
14
19 13
17 11
18 3
1 2
3 0
7 9
8 9
2 8
5 6
0 5
12 1
9 2
4 0
4 13
8 5

15 22
10
1 12
6 16
0 10
11 5
0 14
1 14
3 4
6 19
10 4
7 21
3 4

22 23
13
11 1
5 4
2 5
0 21
18 14
21 14
21 15
2 7
21 5
8 5
8 20
3 13
2 7
9 5

5 13
15
3 6
2 5
4 2
1 7
2 1
4 6
0 2
0 4
0 4
2 11
0 7
4 6
1 10
4 2
3 9
13 4

24 5
10
21 4
16 3
5 4
5 0
21 3
10 4
2 1
4 0
18 1
20 2
12 3

14 21
11
12 2
12 4
5 11
1 10
7 6
13 16
7 18
1 14
9 11
3 1
3 10
12 1

12 23
15
3 8
1 19
3 8
4 8
5 7
3 0
10 11
0 6
8 8
8 17
0 1
4 17
2 1
1 9
11 20
10 4

20 22
14
15 19
13 17
4 19
8 21
13 14
2 12
17 6
15 13
17 1
16 16
6 8
5 21
1 20
2 14
14 1

15 8
14
8 7
8 7
0 2
2 3
3 4
10 3
2 3
10 7
10 2
3 2
13 0
13 0
9 3
13 3
11 4

12 16
15
6 1
1 3
6 9
6 10
4 15
10 13
9 13
8 6
4 3
2 7
10 14
7 12
4 10
3 11
5 8
14 2

19 14
13
13 1
10 6
1 1
17 4
12 4
8 2
13 2
1 6
2 1
5 8
4 10
18 1
2 6
9 1
