*** Life<Cell> 18x15 ***

Generation = 0, Population = 12.
---------------
-----0---------
---------------
----0----------
----------0----
------0--------
---------------
---------------
--------------0
---------------
--------0-0----
---------------
------------00-
-------0-------
------0--------
---0-----------
---------------
---------------

Generation = 11, Population = 116.
-0--1-0*----10-
--0.**.--101--0
--.*..1---1---1
-*.0---01-1001-
*0-0-10-*-1--00
10-*--011*.-10-
----00111-.--1-
-10---0-*010---
10--*--0.*0**01
0--0*-.1*----00
-01--*.----**-.
-0--.*1-*-0-.0*
-0---.--.*..**.
--01-1..-.---1-
---00*--.-1--*-
0-0-0-10*-0.---
-----01-00*-...
0-0-0---0--1--0

Generation = 22, Population = 105.
.0.-*...----***
...*..*.1....0*
....***..*...*.
..**.*..**.*-.-
...-..0.***.-.-
.0*.--....*-...
.....*.**1..**0
*..-**.-*-.***.
*-*..1--.*.***1
..1******0*....
*-*.-.*--.*....
-*..*..1.*.-.*.
1...0.-*...**.*
1....***..**...
*.....--.*.....
-.*..***..**.*0
*.01*******1...
--11.-..*0..-.-

Generation = 33, Population = 49.
.-.*.*...-****.
........*.....*
..*..*.*...**.*
.*.*...*...**.*
.**.......***..
.-...-.*.*..*..
.......**.....1
.......0.......
.-.............
...............
...............
**.............
*..............
*.....**.......
*.*..*.........
.*.*..**......-
..*..........**
.........-....1

Generation = 44, Population = 44.
.0.........*...
**.......*..**.
**..***..**.**.
**..*....*...*.
....*.*...*.*..
**........***..
**............-
**.....-.......
.1.............
...............
...............
**.............
*..............
*..............
*.*............
.*.*...........
..*............
.........-.....

Generation = 55, Population = 36.
...............
***...*........
......*....*...
....***..**.**.
..*.*.....*..*.
..*.*.....*....
...*.........*.
.......-.....*.
.........*..*..
..........*.*..
...............
**.............
*..............
*..............
*.*............
.*.*...........
..*............
.........-.....

Generation = 66, Population = 31.
.*****.........
*....*.........
*..**...*.*....
**.**.....*....
..*...*....*...
..........*....
.......*.......
...............
...............
...............
...............
**.............
*..............
*..............
*.*............
.*.*...........
..*............
.........-.....

Generation = 77, Population = 9.
...............
...............
...............
...............
...............
...............
...............
...............
...............
...............
...............
**.............
*..............
*..............
*.*............
.*.*...........
..*............
.........-.....

Generation = 88, Population = 9.
...............
...............
...............
...............
...............
...............
...............
...............
...............
...............
...............
**.............
*..............
*..............
*.*............
.*.*...........
..*............
.........-.....

Generation = 99, Population = 9.
...............
...............
...............
...............
...............
...............
...............
...............
...............
...............
...............
**.............
*..............
*..............
*.*............
.*.*...........
..*............
.........-.....

*** Life<Cell> 2x13 ***

Generation = 0, Population = 15.
-0-0-0--0-000
--000-00--000

Generation = 50, Population = 4.
.......--**.-
........**-.-

Generation = 100, Population = 4.
.......--**.-
........**-.-

Generation = 150, Population = 4.
.......--**.-
........**-.-

*** Life<Cell> 11x16 ***

Generation = 0, Population = 26.
---0------------
------0---0-----
----------------
---0----0--0----
0---0----------0
-------0---0----
--0--0-0--------
-00----0--------
-------00-------
--0-0---------00
---0----0-----0-

Generation = 19, Population = 57.
.-..*....*1***..
...**-..--..-.*.
....*0..*.*.-.*.
...**.1..*0*...*
-..**.***-**...*
....****.1..***.
..........1.....
.*-.......0**0-.
*****......**..-
...**...........
*****......-...-

Generation = 38, Population = 33.
.-........*.*...
....*...........
...**.......**..
..****.**.*.*.*.
1**....*..*.....
.....*...*...*..
.......*........
.....***........
..*.**.........-
...*............
...*.......-...-

Generation = 57, Population = 19.
.-.....**.......
..**..*..*......
.**....*.*......
...*....*.......
................
................
................
................
**.............-
*..*............
.***.......-...-

Generation = 76, Population = 18.
.**....**.......
.**...*..*......
.......*.*......
........*.......
................
................
................
................
**.............-
*..*............
.***.......-...-

Generation = 95, Population = 18.
.**....**.......
.**...*..*......
.......*.*......
........*.......
................
................
................
................
**.............-
*..*............
.***.......-...-

Generation = 114, Population = 18.
.**....**.......
.**...*..*......
.......*.*......
........*.......
................
................
................
................
**.............-
*..*............
.***.......-...-

Generation = 133, Population = 18.
.**....**.......
.**...*..*......
.......*.*......
........*.......
................
................
................
................
**.............-
*..*............
.***.......-...-

Generation = 152, Population = 18.
.**....**.......
.**...*..*......
.......*.*......
........*.......
................
................
................
................
**.............-
*..*............
.***.......-...-

Generation = 171, Population = 18.
.**....**.......
.**...*..*......
.......*.*......
........*.......
................
................
................
................
**.............-
*..*............
.***.......-...-

*** Life<Cell> 9x19 ***

Generation = 0, Population = 9.
-------------------
0---0--0-----------
----------------0--
-------------0-----
-------0-----------
------0------------
-------------------
-------------------
--------0----0-----

Generation = 19, Population = 65.
***-....1*.*****.**
*.-*.....*..-..1-*.
1-1.1*1*0*.****-..-
---***.*.*.*.1....0
*-.*--1**.*........
*-1--.....0**...**.
*..-.**..1..-*....*
-..-...*....-.*.-.-
...*...-10..**-1..*

Generation = 38, Population = 33.
...-...............
.***............-..
*..*..*.-..........
*....***...........
.***..**..**.......
...***...**.*......
....**...**.*......
............**....-
.......-...***.....

*** Life<Cell> 14x5 ***

Generation = 0, Population = 13.
-0---
-0-0-
-----
-----
0----
0----
----0
0----
-----
0--0-
---0-
---0-
---0-
0----

Generation = 45, Population = 4.
..-.-
..-..
...--
.....
.....
.....
.....
.....
.....
.....
.....
.....
...**
...**

Generation = 90, Population = 4.
..-.-
..-..
...--
.....
.....
.....
.....
.....
.....
.....
.....
.....
...**
...**

Generation = 135, Population = 4.
..-.-
..-..
...--
.....
.....
.....
.....
.....
.....
.....
.....
.....
...**
...**

*** Life<Cell> 9x7 ***

Generation = 0, Population = 26.
-0--0--
---0-0-
-00---0
00--0-0
0000--0
------0
-0-----
-00-000
-00---0

*** Life<Cell> 14x18 ***

Generation = 0, Population = 26.
-0--0-0-----------
-------00---0-----
----00----00-----0
---0----------0-0-
------------0-----
------------------
---0--------------
----------------0-
------0-0---------
---------0--0-----
-0----------0-----
---0--------------
---0--------------
-------0----------

Generation = 38, Population = 44.
....-...***.....**
.......*..*..**.**
.*..............**
*.**........*...*.
.............*.*..
*..*......**..*...
.**...***.**......
......******......
......*..**.......
........**........
..................
..................
..................
.-................

Generation = 76, Population = 14.
..*...............
.*.*..............
..................
..................
*.................
*....*............
.*...*............
..***.............
..***.............
..................
..................
..................
..................
.-................

Generation = 114, Population = 7.
..................
..................
..................
..................
..................
....*.............
...*.*............
...*..*...........
....**............
..................
..................
..................
..................
..................

Generation = 152, Population = 7.
..................
..................
..................
..................
..................
....*.............
...*.*............
...*..*...........
....**............
..................
..................
..................
..................
..................

*** Life<Cell> 2x14 ***

Generation = 0, Population = 10.
00--------0--0
--0000----0--0

Generation = 1, Population = 19.
11-000---01001
0-1--10--01001

*** Life<Cell> 13x15 ***

Generation = 0, Population = 4.
0--------------
---------------
------0--0-----
---------------
---------------
---------------
---------------
---------------
--0------------
---------------
---------------
---------------
---------------

Generation = 47, Population = 9.
-..............
.-.**......**..
...**.....*..*.
............*..
...-...........
...-...........
...............
...............
...............
-..............
.-.............
-.-............
.-.............

*** Life<Cell> 10x12 ***

Generation = 0, Population = 20.
-----------0
---0----0--0
----0-0--0-0
------------
-0--------0-
00-------0--
00----------
---00-------
0-----------
-------0-0--

Generation = 35, Population = 15.
...-....-.-.
.......-.-..
-...........
.......**...
............
....**...*..
**..**......
**........*.
.......*.*..
........*...

*** Life<Cell> 20x18 ***

Generation = 0, Population = 20.
------------------
----0-------------
-----------0-----0
--0-----------0---
-----0-0----------
------------------
-----------0------
------0---------0-
------------------
--------0---------
---------------0--
------0-0---------
-0----------------
--------------0---
-------0----------
------------------
--------------0---
-------0----------
----------------0-
------------------

Generation = 19, Population = 154.
0---01-.00-010*-0-
-0--01-*-10--*.-*0
--0-----1101-1..1-
------0-----*-.--0
0--101..-.00*-***0
-0--1.*...-0--*110
-1-.-0..1..*****..
---1---.1--1.-.*00
-01-..-***1**...*-
1--.*...*.-*-*0-.*
-**11**...*.11....
---.-1***-11.**.**
-.0*-.1*......-..0
--*.****...-**--*.
1*--1-.0.*..-.*...
0*0**.....-.**.-.1
1-*01.****...*.-.0
-.-*.1-...*.*.0..*
..1-.--*1*.1......
--*.*.***..*...**1

Generation = 38, Population = 54.
**....**.........-
..*......*...**..-
**1.***.**-.*..*..
**...**...**..*...
......*...........
..*****.......*..-
..****..*..**.**..
...*....1.........
..................
..................
..................
..-...............
....-.............
..................
..................
...............-..
.-.-........*.*..-
.............**...
**..........**....
**............*...

Generation = 57, Population = 34.
**............**.1
.......**....*...1
*...*****.....*.*.
*....*.........*.*
..*..*.........*.*
..***..........**.
..................
..................
..................
..................
..................
..-...............
....-.............
..................
..................
...............-..
.-.-.............-
..................
**................
**................

Generation = 76, Population = 21.
...........**.....
.**........**.....
*.*...............
*.................
*.*...............
.**...............
..................
..................
...**.............
...**.............
..................
..-...............
....-.............
..................
..................
...............-..
.-.-.............-
..................
**................
**................

Generation = 95, Population = 21.
...........**.....
.**........**.....
*.*...............
*.................
*.*...............
.**...............
..................
..................
...**.............
...**.............
..................
..-...............
....-.............
..................
..................
...............-..
.-.-.............-
..................
**................
**................

Generation = 114, Population = 21.
...........**.....
.**........**.....
*.*...............
*.................
*.*...............
.**...............
..................
..................
...**.............
...**.............
..................
..-...............
....-.............
..................
..................
...............-..
.-.-.............-
..................
**................
**................

Generation = 133, Population = 21.
...........**.....
.**........**.....
*.*...............
*.................
*.*...............
.**...............
..................
..................
...**.............
...**.............
..................
..-...............
....-.............
..................
..................
...............-..
.-.-.............-
..................
**................
**................

Generation = 152, Population = 21.
...........**.....
.**........**.....
*.*...............
*.................
*.*...............
.**...............
..................
..................
...**.............
...**.............
..................
..-...............
....-.............
..................
..................
...............-..
.-.-.............-
..................
**................
**................

Generation = 171, Population = 21.
...........**.....
.**........**.....
*.*...............
*.................
*.*...............
.**...............
..................
..................
...**.............
...**.............
..................
..-...............
....-.............
..................
..................
...............-..
.-.-.............-
..................
**................
**................

*** Life<Cell> 7x16 ***

Generation = 0, Population = 24.
-----0-0-0--0---
--0--00----0-0--
----0---00------
----------0--0--
----------00----
----0--------0-0
-00--0--------00

Generation = 20, Population = 33.
.**1......***...
.*.....*.....1*.
**.*...*..*-*.**
**.0.*.......1**
..*..-.--.-.-...
*....*..-......-
.*****.....-....

Generation = 40, Population = 18.
.**...*.........
.**..*.*........
.....*..*.......
.......*........
.....*.*........
.....**......**.
.............**.

Generation = 60, Population = 8.
.**.............
.**.............
................
................
................
.............**.
.............**.

Generation = 80, Population = 8.
.**.............
.**.............
................
................
................
.............**.
.............**.

Generation = 100, Population = 8.
.**.............
.**.............
................
................
................
.............**.
.............**.

Generation = 120, Population = 8.
.**.............
.**.............
................
................
................
.............**.
.............**.

Generation = 140, Population = 8.
.**.............
.**.............
................
................
................
.............**.
.............**.

Generation = 160, Population = 8.
.**.............
.**.............
................
................
................
.............**.
.............**.

Generation = 180, Population = 8.
.**.............
.**.............
................
................
................
.............**.
.............**.

*** Life<Cell> 5x14 ***

Generation = 0, Population = 13.
-0--00--00----
-------0------
---0------0---
0-------------
00-------0-0--

Generation = 37, Population = 19.
-....***......
..****........
..***.*.......
......*..*..**
.....-.**...**

*** Life<Cell> 10x7 ***

Generation = 0, Population = 19.
0-0--0-
00-----
0----00
-0-0---
0-0----
-----0-
----0-0
----0--
00-----
-0-----

*** Life<Cell> 6x17 ***

Generation = 0, Population = 2.
---------0-------
0----------------
-----------------
-----------------
-----------------
-----------------

Generation = 22, Population = 26.
-0-0---------0---
--0-0---0-0-0-0--
-0---0-----0---0-
--0-0-0---0-0-0-0
---0---0-----0---
----0-------0---0

Generation = 44, Population = 5.
-----0-----------
--------------0-0
---------0-------
0----------------
-----------------
-----------------

Generation = 66, Population = 16.
-0-0-------------
0---0-0-0-0------
-0-------0-------
--0---0-0--------
-------0---0-----
0-0--------------

Generation = 88, Population = 8.
-----0-------0---
0-0-0------------
---------0-------
-----------------
---------0-------
0----------------

Generation = 110, Population = 29.
---0-----0-0-0-0-
--0-0---0---0---0
-0-0-0-0-0-0-0---
--0-0-----------0
-0-0-----0-0-----
0-----0-0---0-0--

Generation = 132, Population = 10.
-0---------------
----------0-0----
-------------0---
--0-0------------
-----0-----------
0-------------0-0

Generation = 154, Population = 18.
-----0---0-0-----
0-0-0-------0-0--
---0---------0---
----0-0---0-0----
-0-------------0-
------0---0------

*** Life<Cell> 19x12 ***

Generation = 0, Population = 27.
----0-0-----
-----------0
0-0---------
----------0-
-0------0--0
-----0----00
------0-0--0
00---0------
--------00--
------------
0-----------
------------
--0---------
------------
--------0---
------------
---------0--
---0--------
--0----0----

Generation = 39, Population = 44.
-......*****
.......***.*
.......**.*.
...........0
........**..
.........*..
............
............
............
............
.....-......
...**....-..
**.***......
*..**.......
***.........
**.*.....**.
.**.....*..*
..*.*....*.*
...*......*.

Generation = 78, Population = 14.
-...........
............
............
...........-
............
............
............
............
............
............
............
.*.......-..
*.*.........
*.*.........
**..........
.........**.
........*..*
.........*.*
..........*.

Generation = 117, Population = 14.
-...........
............
............
...........-
............
............
............
............
............
............
............
.*.......-..
*.*.........
*.*.........
**..........
.........**.
........*..*
.........*.*
..........*.

*** Life<Cell> 3x3 ***

Generation = 0, Population = 8.
00-
000
000

Generation = 43, Population = 0.
---
---
---

Generation = 86, Population = 0.
---
---
---

*** Life<Cell> 5x8 ***

Generation = 0, Population = 1.
---0----
--------
--------
--------
--------

Generation = 39, Population = 12.
0---0-0-
---0---0
0-0-----
-----0--
0-0-0-0-

Generation = 78, Population = 4.
-0---0--
--------
---0----
--------
-0------

*** Life<Cell> 6x20 ***

Generation = 0, Population = 13.
--0----0------------
--0-----------0-----
---0--------------0-
--------------------
--------0-----00----
--0-----0-00--------

Generation = 28, Population = 38.
..**......**......*.
.*...*.-..**......*-
.*....*.**..*.*.**.*
....*.****.**.***...
....***..*.**.***...
.........-..........

Generation = 56, Population = 12.
....................
.......-......**....
.............***....
..........*..**.....
............*.*.....
............**......

Generation = 84, Population = 0.
....................
.......-............
....................
....................
....................
....................

Generation = 112, Population = 0.
....................
.......-............
....................
....................
....................
....................

Generation = 140, Population = 0.
....................
.......-............
....................
....................
....................
....................

*** Life<Cell> 18x4 ***

Generation = 0, Population = 19.
----
0-00
----
----
00--
-0--
00--
-0--
----
-0-0
----
00--
---0
0---
----
00-0
-0--
----

Generation = 13, Population = 23.
.*-.
10*.
.*1.
..-.
-...
..1-
...1
..01
.*.*
.*..
.1-*
...*
-.-.
--..
-...
**..
***.
**..

Generation = 26, Population = 18.
..*.
.*..
..*.
....
....
....
....
....
....
....
....
....
.*-.
*.**
*.**
**.*
**.*
.**.

Generation = 39, Population = 4.
....
....
....
....
....
....
....
....
....
....
....
....
..-.
....
....
....
.**.
.**.

Generation = 52, Population = 4.
....
....
....
....
....
....
....
....
....
....
....
....
..-.
....
....
....
.**.
.**.

Generation = 65, Population = 4.
....
....
....
....
....
....
....
....
....
....
....
....
..-.
....
....
....
.**.
.**.

Generation = 78, Population = 4.
....
....
....
....
....
....
....
....
....
....
....
....
..-.
....
....
....
.**.
.**.

Generation = 91, Population = 4.
....
....
....
....
....
....
....
....
....
....
....
....
..-.
....
....
....
.**.
.**.

Generation = 104, Population = 4.
....
....
....
....
....
....
....
....
....
....
....
....
..-.
....
....
....
.**.
.**.

Generation = 117, Population = 4.
....
....
....
....
....
....
....
....
....
....
....
....
..-.
....
....
....
.**.
.**.

Generation = 130, Population = 4.
....
....
....
....
....
....
....
....
....
....
....
....
..-.
....
....
....
.**.
.**.

Generation = 143, Population = 4.
....
....
....
....
....
....
....
....
....
....
....
....
..-.
....
....
....
.**.
.**.

Generation = 156, Population = 4.
....
....
....
....
....
....
....
....
....
....
....
....
..-.
....
....
....
.**.
.**.

Generation = 169, Population = 4.
....
....
....
....
....
....
....
....
....
....
....
....
..-.
....
....
....
.**.
.**.

*** Life<Cell> 12x5 ***

Generation = 0, Population = 15.
--0--
---00
-0--0
---0-
-----
0---0
-0---
--0--
00---
--0--
-0---
0----

Generation = 37, Population = 3.
....-
.....
.....
.....
.....
....-
.....
.....
..*..
.*...
.*...
.....

Generation = 74, Population = 0.
....-
.....
.....
.....
.....
....-
.....
.....
.....
.....
.....
.....

Generation = 111, Population = 0.
....-
.....
.....
.....
.....
....-
.....
.....
.....
.....
.....
.....

Generation = 148, Population = 0.
....-
.....
.....
.....
.....
....-
.....
.....
.....
.....
.....
.....

*** Life<Cell> 17x9 ***

Generation = 0, Population = 13.
---------
--0-0----
---------
--------0
0----0---
---------
---------
--------0
------0--
------0-0
---------
----0----
------0--
----0----
---------
---------
0--------

*** Life<Cell> 15x14 ***

Generation = 0, Population = 5.
--------------
--------------
--------------
--------------
--------------
--------------
--------------
---0----------
--------0---0-
--------------
-------------0
--------------
--------------
-------0------
--------------

Generation = 11, Population = 80.
-----0---0-01*
------0----0--
---------001-*
------0----000
---0-0-0-0-0--
0-0-0-0--1---0
-----0-01-01.*
0-0--10--10*--
---00-0-..-*.*
--010-0*----*0
-00--*-*0.-*..
0--00-0-001*00
----0--1110.-.
-----000-00--.
-----0--1-*..-

Generation = 22, Population = 94.
----0100**-*..
----0--1-.11-.
0000----*.*..*
-1--*111*1-..-
--0-01--*.-*.-
01*...1**..-1.
1-.*.*.1...-.*
-*-001..1..***
.-*11.-..*....
*.-*.**.1.0...
*10*..0....*..
-.**-1.1*..*11
*.-*1.-.*...1.
--*-1..**1..-*
10-.**.1**.**-

Generation = 33, Population = 62.
.-1.-.*-..-...
1**1*--*0.11-.
*.-.......**..
*..-*...*.***.
...-1...**-.*.
..........*.*.
..........***.
-.-..*.**...*.
.*..-.*.....*.
..*...***...*.
.*....**...*..
1**..**.**.*..
.**.*.*.*.....
...****..-..-.
..-..........-

Generation = 44, Population = 40.
.-..1....**.**
-...*....*..**
....***....**.
..........**..
***.......**..
*.*...........
..**..........
-.*...........
..*...........
..............
**.**.........
....***.......
....*.**......
....*.*.....-.
..-..*.......-

*** Life<Cell> 18x6 ***

Generation = 0, Population = 10.
---0--
------
0--0--
---0--
----0-
-----0
------
------
------
------
---0-0
------
------
----00
------
------
------
------

Generation = 10, Population = 51.
**1.-0
..0*0-
***..*
1--*-.
01*...
--1.0-
0-00**
--1-0.
10-*--
--0---
-*---*
1.-*1-
1*1*0*
*.-**.
*.-.00
------
010-0-
---..1

Generation = 20, Population = 39.
....*-
..1..*
....**
....**
0*..**
.*....
11....
.***..
*...1.
.-.-.0
..-.**
.**..*
...**.
...*..
..**..
1**.**
.-*-1.
-11...

Generation = 30, Population = 15.
.....-
......
......
......
...*..
..***.
..***.
......
......
......
**..*.
......
.*....
.....*
...*..
...*.*
...-..
......

Generation = 40, Population = 12.
.....-
......
..**..
...**.
...*.*
......
...*.*
...**.
..**..
......
......
......
......
......
......
......
...-..
......

Generation = 50, Population = 24.
..***-
.*...*
.*...*
.*...*
..***.
......
..***.
.*...*
.*...*
.*...*
..***.
......
......
......
......
......
...-..
......

Generation = 60, Population = 28.
...**-
..**.*
..**.*
.*.*.*
.*...*
.**..*
....*.
......
**..**
*..*.*
.**..*
....*.
......
......
......
......
...-..
......

Generation = 70, Population = 15.
..***1
.*....
..**..
...*..
......
..*...
.*.**.
.*.*..
..*...
......
......
......
......
......
......
......
...-..
......

*** Life<Cell> 10x20 ***

Generation = 0, Population = 17.
-0------------------
-----------0--0-----
--------------------
---------------0----
--------------0-----
--------------------
---------0-------0--
0-----0------0------
----------------00--
--0---------0--0-00-

Generation = 35, Population = 39.
....**.............-
....*.**..........-.
.....**.*...........
.....**.**..........
.**..**-..**.*......
.*..1.***.*.*.*....-
..*....**.*.1......1
*.*......*..........
.**.................
.*.........-........

Generation = 70, Population = 15.
...................-
..**......*.*.....-.
..**.........*......
..........*.*.......
..........*..*......
............**.....1
.............*.....-
....................
....................
....................

Generation = 105, Population = 5.
...................-
..**..............-.
..**................
....................
....................
...................-
...................1
....................
....................
....................

Generation = 140, Population = 5.
...................-
..**..............-.
..**................
....................
....................
...................1
...................-
....................
....................
....................

*** Life<Cell> 5x2 ***

Generation = 0, Population = 10.
00
00
00
00
00

Generation = 32, Population = 0.
..
..
..
..
..

Generation = 64, Population = 0.
..
..
..
..
..

Generation = 96, Population = 0.
..
..
..
..
..

Generation = 128, Population = 0.
..
..
..
..
..

Generation = 160, Population = 0.
..
..
..
..
..

*** Life<Cell> 8x18 ***

Generation = 0, Population = 9.
0---0--------0----
------------------
--------------0---
-----0------------
------------------
-----0--0---------
--0---------------
--------------0---

Generation = 13, Population = 66.
---.*.1.-.....*..*
--0--*....*-*1..**
10--*0..0.-*1....-
.1*1010.***-*.1-*0
.11*.*0.0--*-1..10
-***.**..***-*.-.0
.-1-.-1..-11...0.0
-.-**-*--1*-*-**-0

Generation = 26, Population = 24.
...*..............
.*..*.............
.*-**.....**....*.
..*...-...**....*-
........-.*.**.*.*
...........**..**.
...-.......*...1.-
..-...............

Generation = 39, Population = 28.
..................
.***..........**..
.***.........***..
..*...*.....*...*-
......**....*****.
..........*.......
...-......*......*
..-............***

Generation = 52, Population = 31.
..................
.*.....*****....**
..*....*****....**
*..*...*.*........
..................
.*.......*........
...1.......**...**
..1........*....**

Generation = 65, Population = 8.
..................
................**
................**
..................
..................
..................
...-............**
..-.............**

Generation = 78, Population = 8.
..................
................**
................**
..................
..................
..................
...-............**
..-.............**

Generation = 91, Population = 8.
..................
................**
................**
..................
..................
..................
...-............**
..-.............**

Generation = 104, Population = 8.
..................
................**
................**
..................
..................
..................
...-............**
..-.............**

Generation = 117, Population = 8.
..................
................**
................**
..................
..................
..................
...-............**
..-.............**

Generation = 130, Population = 8.
..................
................**
................**
..................
..................
..................
...-............**
..-.............**

Generation = 143, Population = 8.
..................
................**
................**
..................
..................
..................
...-............**
..-.............**

Generation = 156, Population = 8.
..................
................**
................**
..................
..................
..................
...-............**
..-.............**

Generation = 169, Population = 8.
..................
................**
................**
..................
..................
..................
...-............**
..-.............**

*** Life<Cell> 12x4 ***

Generation = 0, Population = 19.
----
00--
---0
0--0
0--0
0---
---0
--0-
-000
-0--
-000
--00

Generation = 10, Population = 24.
0.1.
*-.-
1.-*
*-.*
01.*
**..
.1.-
1..-
*-.*
*1-0
**.*
.0*.

Generation = 20, Population = 13.
-...
..**
.**.
..**
*.*.
....
*..*
.***
.-..
..-.
....
.-..

Generation = 30, Population = 7.
***.
*...
.*.*
..*.
....
....
....
....
.-..
....
....
.-..

Generation = 40, Population = 8.
**..
*.*.
*..*
.**.
....
....
....
....
.-..
....
....
.-..

Generation = 50, Population = 8.
**..
*.*.
*..*
.**.
....
....
....
....
.-..
....
....
.-..

Generation = 60, Population = 8.
**..
*.*.
*..*
.**.
....
....
....
....
.-..
....
....
.-..
