21

15 9
30
7 6
9 5
8 7
8 3
11 3
13 0
8 6
13 4
6 7
11 2
3 5
9 2
11 8
12 8
14 8
0 4
13 1
6 4
2 6
11 4
9 8
11 1
1 5
0 7
2 8
6 2
12 7
14 8
11 1
4 0
15 2

9 14
3
6 13
5 8
6 12
43 2

16 1
13
13 0
3 0
11 0
1 0
7 0
0 0
11 0
9 0
14 0
5 0
8 0
14 0
10 0
3 5

5 17
30
0 16
3 9
0 13
2 8
1 1
3 15
1 0
4 3
4 10
4 11
0 8
3 1
0 1
2 7
4 3
3 4
3 2
0 15
2 12
0 0
1 15
1 13
2 11
3 12
0 1
2 10
0 10
3 6
0 10
2 11
33 4

19 4
23
0 2
11 3
14 2
0 2
5 2
3 2
18 0
11 3
1 1
18 1
11 2
1 3
0 2
12 0
13 0
17 2
10 1
16 2
0 2
12 1
8 1
14 0
6 3
53 3

4 2
17
2 0
2 0
3 0
3 0
1 1
3 1
2 1
0 1
2 1
2 1
1 1
2 1
1 0
2 0
2 1
2 1
2 1
12 4

18 20
18
15 3
7 2
2 2
13 6
12 0
14 4
8 12
1 15
17 17
4 11
16 19
4 8
8 14
12 1
15 4
1 19
13 6
5 11
18 5

3 7
21
1 3
1 6
2 4
1 4
2 0
1 6
2 1
2 1
1 5
1 1
1 4
0 2
1 3
0 3
2 5
0 1
2 0
2 6
2 0
0 5
0 5
22 4

14 20
21
0 16
2 18
13 5
6 6
4 13
7 9
3 6
0 5
6 16
1 19
8 4
7 5
13 12
4 7
2 8
4 10
5 15
3 6
10 2
8 7
6 11
45 2

10 1
8
9 0
4 0
9 0
0 0
1 0
0 0
0 0
9 0
26 3

7 4
12
3 3
2 3
6 3
2 3
5 0
0 2
5 0
0 2
6 0
6 2
0 0
3 2
26 4

6 5
8
3 4
0 4
2 1
3 3
5 4
3 1
0 1
4 1
31 4

14 5
23
13 4
8 0
13 2
9 4
7 3
10 3
3 2
5 3
7 0
2 4
11 1
0 3
10 2
13 2
8 3
7 1
0 0
1 0
5 1
8 1
3 1
4 1
2 0
60 5

5 18
13
0 3
0 5
2 11
1 10
1 11
2 0
4 0
0 0
3 12
0 16
1 2
1 10
3 3
27 2

13 14
25
12 7
0 13
11 11
8 9
3 5
1 7
6 7
10 10
4 0
11 1
9 3
2 11
3 1
6 5
3 13
11 0
3 2
2 11
4 11
10 10
0 7
5 1
4 4
9 12
11 11
51 5

1 3
23
0 2
0 2
0 0
0 1
0 0
0 1
0 0
0 0
0 1
0 0
0 1
0 2
0 0
0 2
0 2
0 2
0 1
0 0
0 2
0 0
0 2
0 2
0 0
4 5

2 5
20
1 2
1 2
1 3
1 2
1 3
1 1
0 4
1 1
1 4
1 3
0 3
0 4
1 4
0 1
1 1
0 4
0 1
0 4
0 0
0 0
52 2

3 20
7
2 10
0 11
2 2
0 17
2 11
1 12
0 16
50 3

15 18
12
6 15
10 1
11 9
8 17
13 4
10 16
13 8
5 17
9 7
1 3
5 4
3 13
54 2

14 19
20
0 17
0 4
7 9
4 8
9 0
5 12
4 8
6 18
12 7
5 17
3 5
0 0
11 16
8 1
1 17
13 7
11 6
9 17
1 7
11 2
27 3

8 9
27
2 6
5 5
0 8
4 6
7 0
6 3
5 4
2 4
4 1
3 3
3 2
2 7
1 8
0 7
1 5
2 6
2 7
0 7
7 4
0 6
0 7
0 8
3 1
3 0
7 4
0 5
7 6
14 5
